problema1/simulation/modelsim/tb_mult_parametrizable.vcd
$date
	Tue Sep 02 16:19:13 2025
$end
$version
	ModelSim Version 2020.1
$end
$timescale
	1ps
$end

$scope module tb_mult_parametrizable $end
$var parameter 32 ! N $end
$var reg 4 " A [3:0] $end
$var reg 4 # B [3:0] $end
$var wire 1 $ P_full [7] $end
$var wire 1 % P_full [6] $end
$var wire 1 & P_full [5] $end
$var wire 1 ' P_full [4] $end
$var wire 1 ( P_full [3] $end
$var wire 1 ) P_full [2] $end
$var wire 1 * P_full [1] $end
$var wire 1 + P_full [0] $end
$var wire 1 , P_trunc [3] $end
$var wire 1 - P_trunc [2] $end
$var wire 1 . P_trunc [1] $end
$var wire 1 / P_trunc [0] $end
$var integer 32 0 total_tests $end
$var integer 32 1 total_errors $end

$scope task check_case $end
$upscope $end

$scope module dut $end
$var parameter 32 2 N $end
$var parameter 32 3 M $end
$var wire 1 4 A [3] $end
$var wire 1 5 A [2] $end
$var wire 1 6 A [1] $end
$var wire 1 7 A [0] $end
$var wire 1 8 B [3] $end
$var wire 1 9 B [2] $end
$var wire 1 : B [1] $end
$var wire 1 ; B [0] $end
$var reg 8 < P_full [7:0] $end
$var reg 4 = P_trunc [3:0] $end

$scope begin gen_acc[3] $end
$var parameter 32 > g2 $end
$var reg 8 ? sum_i [7:0] $end
$var reg 1 @ cout_i $end
$var reg 1 A cin_msb_i $end

$scope module U_ADD $end
$var parameter 32 B N $end
$var wire 1 C A [7] $end
$var wire 1 D A [6] $end
$var wire 1 E A [5] $end
$var wire 1 F A [4] $end
$var wire 1 G A [3] $end
$var wire 1 H A [2] $end
$var wire 1 I A [1] $end
$var wire 1 J A [0] $end
$var wire 1 K B [7] $end
$var wire 1 L B [6] $end
$var wire 1 M B [5] $end
$var wire 1 N B [4] $end
$var wire 1 O B [3] $end
$var wire 1 P B [2] $end
$var wire 1 Q B [1] $end
$var wire 1 R B [0] $end
$var wire 1 S CIN $end
$var reg 8 T SUM [7:0] $end
$var reg 1 U COUT $end
$var reg 1 V CARRY_INTO_MSB $end
$var reg 9 W c [8:0] $end

$scope begin gen_add[7] $end
$var parameter 32 X i $end

$scope module fa $end
$var wire 1 C A $end
$var wire 1 K B $end
$var wire 1 Y Carry $end
$var reg 1 Z suma $end
$var reg 1 [ Cout $end
$upscope $end
$upscope $end

$scope begin gen_add[6] $end
$var parameter 32 \ i $end

$scope module fa $end
$var wire 1 D A $end
$var wire 1 L B $end
$var wire 1 ] Carry $end
$var reg 1 ^ suma $end
$var reg 1 _ Cout $end
$upscope $end
$upscope $end

$scope begin gen_add[5] $end
$var parameter 32 ` i $end

$scope module fa $end
$var wire 1 E A $end
$var wire 1 M B $end
$var wire 1 a Carry $end
$var reg 1 b suma $end
$var reg 1 c Cout $end
$upscope $end
$upscope $end

$scope begin gen_add[4] $end
$var parameter 32 d i $end

$scope module fa $end
$var wire 1 F A $end
$var wire 1 N B $end
$var wire 1 e Carry $end
$var reg 1 f suma $end
$var reg 1 g Cout $end
$upscope $end
$upscope $end

$scope begin gen_add[3] $end
$var parameter 32 h i $end

$scope module fa $end
$var wire 1 G A $end
$var wire 1 O B $end
$var wire 1 i Carry $end
$var reg 1 j suma $end
$var reg 1 k Cout $end
$upscope $end
$upscope $end

$scope begin gen_add[2] $end
$var parameter 32 l i $end

$scope module fa $end
$var wire 1 H A $end
$var wire 1 P B $end
$var wire 1 m Carry $end
$var reg 1 n suma $end
$var reg 1 o Cout $end
$upscope $end
$upscope $end

$scope begin gen_add[1] $end
$var parameter 32 p i $end

$scope module fa $end
$var wire 1 I A $end
$var wire 1 Q B $end
$var wire 1 q Carry $end
$var reg 1 r suma $end
$var reg 1 s Cout $end
$upscope $end
$upscope $end

$scope begin gen_add[0] $end
$var parameter 32 t i $end

$scope module fa $end
$var wire 1 J A $end
$var wire 1 R B $end
$var wire 1 u Carry $end
$var reg 1 v suma $end
$var reg 1 w Cout $end
$upscope $end
$upscope $end
$upscope $end
$upscope $end

$scope begin gen_acc[2] $end
$var parameter 32 x g2 $end
$var reg 8 y sum_i [7:0] $end
$var reg 1 z cout_i $end
$var reg 1 { cin_msb_i $end

$scope module U_ADD $end
$var parameter 32 | N $end
$var wire 1 } A [7] $end
$var wire 1 ~ A [6] $end
$var wire 1 !! A [5] $end
$var wire 1 "! A [4] $end
$var wire 1 #! A [3] $end
$var wire 1 $! A [2] $end
$var wire 1 %! A [1] $end
$var wire 1 &! A [0] $end
$var wire 1 '! B [7] $end
$var wire 1 (! B [6] $end
$var wire 1 )! B [5] $end
$var wire 1 *! B [4] $end
$var wire 1 +! B [3] $end
$var wire 1 ,! B [2] $end
$var wire 1 -! B [1] $end
$var wire 1 .! B [0] $end
$var wire 1 /! CIN $end
$var reg 8 0! SUM [7:0] $end
$var reg 1 1! COUT $end
$var reg 1 2! CARRY_INTO_MSB $end
$var reg 9 3! c [8:0] $end

$scope begin gen_add[7] $end
$var parameter 32 4! i $end

$scope module fa $end
$var wire 1 } A $end
$var wire 1 '! B $end
$var wire 1 5! Carry $end
$var reg 1 6! suma $end
$var reg 1 7! Cout $end
$upscope $end
$upscope $end

$scope begin gen_add[6] $end
$var parameter 32 8! i $end

$scope module fa $end
$var wire 1 ~ A $end
$var wire 1 (! B $end
$var wire 1 9! Carry $end
$var reg 1 :! suma $end
$var reg 1 ;! Cout $end
$upscope $end
$upscope $end

$scope begin gen_add[5] $end
$var parameter 32 <! i $end

$scope module fa $end
$var wire 1 !! A $end
$var wire 1 )! B $end
$var wire 1 =! Carry $end
$var reg 1 >! suma $end
$var reg 1 ?! Cout $end
$upscope $end
$upscope $end

$scope begin gen_add[4] $end
$var parameter 32 @! i $end

$scope module fa $end
$var wire 1 "! A $end
$var wire 1 *! B $end
$var wire 1 A! Carry $end
$var reg 1 B! suma $end
$var reg 1 C! Cout $end
$upscope $end
$upscope $end

$scope begin gen_add[3] $end
$var parameter 32 D! i $end

$scope module fa $end
$var wire 1 #! A $end
$var wire 1 +! B $end
$var wire 1 E! Carry $end
$var reg 1 F! suma $end
$var reg 1 G! Cout $end
$upscope $end
$upscope $end

$scope begin gen_add[2] $end
$var parameter 32 H! i $end

$scope module fa $end
$var wire 1 $! A $end
$var wire 1 ,! B $end
$var wire 1 I! Carry $end
$var reg 1 J! suma $end
$var reg 1 K! Cout $end
$upscope $end
$upscope $end

$scope begin gen_add[1] $end
$var parameter 32 L! i $end

$scope module fa $end
$var wire 1 %! A $end
$var wire 1 -! B $end
$var wire 1 M! Carry $end
$var reg 1 N! suma $end
$var reg 1 O! Cout $end
$upscope $end
$upscope $end

$scope begin gen_add[0] $end
$var parameter 32 P! i $end

$scope module fa $end
$var wire 1 &! A $end
$var wire 1 .! B $end
$var wire 1 Q! Carry $end
$var reg 1 R! suma $end
$var reg 1 S! Cout $end
$upscope $end
$upscope $end
$upscope $end
$upscope $end

$scope begin gen_acc[1] $end
$var parameter 32 T! g2 $end
$var reg 8 U! sum_i [7:0] $end
$var reg 1 V! cout_i $end
$var reg 1 W! cin_msb_i $end

$scope module U_ADD $end
$var parameter 32 X! N $end
$var wire 1 Y! A [7] $end
$var wire 1 Z! A [6] $end
$var wire 1 [! A [5] $end
$var wire 1 \! A [4] $end
$var wire 1 ]! A [3] $end
$var wire 1 ^! A [2] $end
$var wire 1 _! A [1] $end
$var wire 1 `! A [0] $end
$var wire 1 a! B [7] $end
$var wire 1 b! B [6] $end
$var wire 1 c! B [5] $end
$var wire 1 d! B [4] $end
$var wire 1 e! B [3] $end
$var wire 1 f! B [2] $end
$var wire 1 g! B [1] $end
$var wire 1 h! B [0] $end
$var wire 1 i! CIN $end
$var reg 8 j! SUM [7:0] $end
$var reg 1 k! COUT $end
$var reg 1 l! CARRY_INTO_MSB $end
$var reg 9 m! c [8:0] $end

$scope begin gen_add[7] $end
$var parameter 32 n! i $end

$scope module fa $end
$var wire 1 Y! A $end
$var wire 1 a! B $end
$var wire 1 o! Carry $end
$var reg 1 p! suma $end
$var reg 1 q! Cout $end
$upscope $end
$upscope $end

$scope begin gen_add[6] $end
$var parameter 32 r! i $end

$scope module fa $end
$var wire 1 Z! A $end
$var wire 1 b! B $end
$var wire 1 s! Carry $end
$var reg 1 t! suma $end
$var reg 1 u! Cout $end
$upscope $end
$upscope $end

$scope begin gen_add[5] $end
$var parameter 32 v! i $end

$scope module fa $end
$var wire 1 [! A $end
$var wire 1 c! B $end
$var wire 1 w! Carry $end
$var reg 1 x! suma $end
$var reg 1 y! Cout $end
$upscope $end
$upscope $end

$scope begin gen_add[4] $end
$var parameter 32 z! i $end

$scope module fa $end
$var wire 1 \! A $end
$var wire 1 d! B $end
$var wire 1 {! Carry $end
$var reg 1 |! suma $end
$var reg 1 }! Cout $end
$upscope $end
$upscope $end

$scope begin gen_add[3] $end
$var parameter 32 ~! i $end

$scope module fa $end
$var wire 1 ]! A $end
$var wire 1 e! B $end
$var wire 1 !" Carry $end
$var reg 1 "" suma $end
$var reg 1 #" Cout $end
$upscope $end
$upscope $end

$scope begin gen_add[2] $end
$var parameter 32 $" i $end

$scope module fa $end
$var wire 1 ^! A $end
$var wire 1 f! B $end
$var wire 1 %" Carry $end
$var reg 1 &" suma $end
$var reg 1 '" Cout $end
$upscope $end
$upscope $end

$scope begin gen_add[1] $end
$var parameter 32 (" i $end

$scope module fa $end
$var wire 1 _! A $end
$var wire 1 g! B $end
$var wire 1 )" Carry $end
$var reg 1 *" suma $end
$var reg 1 +" Cout $end
$upscope $end
$upscope $end

$scope begin gen_add[0] $end
$var parameter 32 ," i $end

$scope module fa $end
$var wire 1 `! A $end
$var wire 1 h! B $end
$var wire 1 -" Carry $end
$var reg 1 ." suma $end
$var reg 1 /" Cout $end
$upscope $end
$upscope $end
$upscope $end
$upscope $end

$scope begin gen_acc[0] $end
$var parameter 32 0" g2 $end
$var reg 8 1" sum_i [7:0] $end
$var reg 1 2" cout_i $end
$var reg 1 3" cin_msb_i $end

$scope module U_ADD $end
$var parameter 32 4" N $end
$var wire 1 5" A [7] $end
$var wire 1 6" A [6] $end
$var wire 1 7" A [5] $end
$var wire 1 8" A [4] $end
$var wire 1 9" A [3] $end
$var wire 1 :" A [2] $end
$var wire 1 ;" A [1] $end
$var wire 1 <" A [0] $end
$var wire 1 =" B [7] $end
$var wire 1 >" B [6] $end
$var wire 1 ?" B [5] $end
$var wire 1 @" B [4] $end
$var wire 1 A" B [3] $end
$var wire 1 B" B [2] $end
$var wire 1 C" B [1] $end
$var wire 1 D" B [0] $end
$var wire 1 E" CIN $end
$var reg 8 F" SUM [7:0] $end
$var reg 1 G" COUT $end
$var reg 1 H" CARRY_INTO_MSB $end
$var reg 9 I" c [8:0] $end

$scope begin gen_add[7] $end
$var parameter 32 J" i $end

$scope module fa $end
$var wire 1 5" A $end
$var wire 1 =" B $end
$var wire 1 K" Carry $end
$var reg 1 L" suma $end
$var reg 1 M" Cout $end
$upscope $end
$upscope $end

$scope begin gen_add[6] $end
$var parameter 32 N" i $end

$scope module fa $end
$var wire 1 6" A $end
$var wire 1 >" B $end
$var wire 1 O" Carry $end
$var reg 1 P" suma $end
$var reg 1 Q" Cout $end
$upscope $end
$upscope $end

$scope begin gen_add[5] $end
$var parameter 32 R" i $end

$scope module fa $end
$var wire 1 7" A $end
$var wire 1 ?" B $end
$var wire 1 S" Carry $end
$var reg 1 T" suma $end
$var reg 1 U" Cout $end
$upscope $end
$upscope $end

$scope begin gen_add[4] $end
$var parameter 32 V" i $end

$scope module fa $end
$var wire 1 8" A $end
$var wire 1 @" B $end
$var wire 1 W" Carry $end
$var reg 1 X" suma $end
$var reg 1 Y" Cout $end
$upscope $end
$upscope $end

$scope begin gen_add[3] $end
$var parameter 32 Z" i $end

$scope module fa $end
$var wire 1 9" A $end
$var wire 1 A" B $end
$var wire 1 [" Carry $end
$var reg 1 \" suma $end
$var reg 1 ]" Cout $end
$upscope $end
$upscope $end

$scope begin gen_add[2] $end
$var parameter 32 ^" i $end

$scope module fa $end
$var wire 1 :" A $end
$var wire 1 B" B $end
$var wire 1 _" Carry $end
$var reg 1 `" suma $end
$var reg 1 a" Cout $end
$upscope $end
$upscope $end

$scope begin gen_add[1] $end
$var parameter 32 b" i $end

$scope module fa $end
$var wire 1 ;" A $end
$var wire 1 C" B $end
$var wire 1 c" Carry $end
$var reg 1 d" suma $end
$var reg 1 e" Cout $end
$upscope $end
$upscope $end

$scope begin gen_add[0] $end
$var parameter 32 f" i $end

$scope module fa $end
$var wire 1 <" A $end
$var wire 1 D" B $end
$var wire 1 g" Carry $end
$var reg 1 h" suma $end
$var reg 1 i" Cout $end
$upscope $end
$upscope $end
$upscope $end
$upscope $end

$scope begin gen_pp_ext[3] $end
$var parameter 32 j" g1 $end
$upscope $end

$scope begin gen_pp_ext[2] $end
$var parameter 32 k" g1 $end
$upscope $end

$scope begin gen_pp_ext[1] $end
$var parameter 32 l" g1 $end
$upscope $end

$scope begin gen_pp_ext[0] $end
$var parameter 32 m" g1 $end
$upscope $end

$scope begin gen_pp[3] $end
$var parameter 32 n" g0 $end
$upscope $end

$scope begin gen_pp[2] $end
$var parameter 32 o" g0 $end
$upscope $end

$scope begin gen_pp[1] $end
$var parameter 32 p" g0 $end
$upscope $end

$scope begin gen_pp[0] $end
$var parameter 32 q" g0 $end
$upscope $end
$upscope $end
$upscope $end
$enddefinitions $end
#0
$dumpvars
b0 "
b0 #
b0 <
b0 =
b0 1"
02"
03"
b0 F"
0G"
0H"
b0 I"
0h"
0i"
0d"
0e"
0`"
0a"
0\"
0]"
0X"
0Y"
0T"
0U"
0P"
0Q"
0L"
0M"
b0 U!
0V!
0W!
b0 j!
0k!
0l!
b0 m!
0."
0/"
0*"
0+"
0&"
0'"
0""
0#"
0|!
0}!
0x!
0y!
0t!
0u!
0p!
0q!
b0 y
0z
0{
b0 0!
01!
02!
b0 3!
0R!
0S!
0N!
0O!
0J!
0K!
0F!
0G!
0B!
0C!
0>!
0?!
0:!
0;!
06!
07!
b0 ?
0@
0A
b0 T
0U
0V
b0 W
0v
0w
0r
0s
0n
0o
0j
0k
0f
0g
0b
0c
0^
0_
0Z
0[
b100 !
b100 2
b1000 3
b0 q"
b1 p"
b10 o"
b11 n"
b0 m"
b1 l"
b10 k"
b11 j"
b0 0"
b1000 4"
b1 T!
b1000 X!
b10 x
b1000 |
b11 >
b1000 B
b0 f"
b1 b"
b10 ^"
b11 Z"
b100 V"
b101 R"
b110 N"
b111 J"
b0 ,"
b1 ("
b10 $"
b11 ~!
b100 z!
b101 v!
b110 r!
b111 n!
b0 P!
b1 L!
b10 H!
b11 D!
b100 @!
b101 <!
b110 8!
b111 4!
b0 t
b1 p
b10 l
b11 h
b100 d
b101 `
b110 \
b111 X
b0 0
b0 1
0+
0*
0)
0(
0'
0&
0%
0$
0/
0.
0-
0,
07
06
05
04
0;
0:
09
08
0E"
0i!
0/!
0S
0<"
0;"
0:"
09"
08"
07"
06"
05"
0D"
0C"
0B"
0A"
0@"
0?"
0>"
0="
0g"
0c"
0_"
0["
0W"
0S"
0O"
0K"
0`!
0_!
0^!
0]!
0\!
0[!
0Z!
0Y!
0h!
0g!
0f!
0e!
0d!
0c!
0b!
0a!
0-"
0)"
0%"
0!"
0{!
0w!
0s!
0o!
0&!
0%!
0$!
0#!
0"!
0!!
0~
0}
0.!
0-!
0,!
0+!
0*!
0)!
0(!
0'!
0Q!
0M!
0I!
0E!
0A!
0=!
09!
05!
0J
0I
0H
0G
0F
0E
0D
0C
0R
0Q
0P
0O
0N
0M
0L
0K
0u
0q
0m
0i
0e
0a
0]
0Y
$end
#2000
b1 0
b1 #
1;
#3000
b10 0
b1 "
17
1D"
1h"
b1 F"
b1 1"
1`!
1."
b1 j!
b1 U!
1&!
1R!
b1 0!
b1 y
1J
1v
b1 T
b1 ?
b1 <
b1 =
1/
1+
#4000
b11 0
#5000
b100 0
b1 1
b10 1
b0 "
b0 #
0;
07
0D"
0h"
b0 F"
b0 1"
0`!
0."
b0 j!
b0 U!
0&!
0R!
b0 0!
b0 y
0J
0v
b0 T
b0 ?
b0 <
b0 =
0/
0+
#6000
b101 0
b11 1
b1 "
b1 #
1;
17
1D"
1h"
b1 F"
b1 1"
1`!
1."
b1 j!
b1 U!
1&!
1R!
b1 0!
b1 y
1J
1v
b1 T
b1 ?
b1 <
b1 =
1/
1+
#7000
b110 0
b100 1
b101 1
#8000
b111 0
b110 1
#9000
b1000 0
b111 1
#10000
b1001 0
b1000 1
b1001 1
b0 "
b0 #
0;
07
0D"
0h"
b0 F"
b0 1"
0`!
0."
b0 j!
b0 U!
0&!
0R!
b0 0!
b0 y
0J
0v
b0 T
b0 ?
b0 <
b0 =
0/
0+
#11000
b1010 0
b1010 1
#12000
b1011 0
b1 #
1;
#13000
b1100 0
b0 #
0;
#14000
b1101 0
b1 #
1;
#15000
b1110 0
b0 #
0;
#16000
b1111 0
b1 #
1;
#17000
b10000 0
b0 #
0;
#18000
b10001 0
b1 #
1;
#19000
b10010 0
b0 #
0;
#20000
b10011 0
b1 #
1;
#21000
b10100 0
b0 #
0;
#22000
b10101 0
b1 #
1;
#23000
b10110 0
b0 #
0;
#24000
b10111 0
b1 #
1;
#25000
b11000 0
b0 #
0;
#26000
b11001 0
b1 #
1;
#27000
b11010 0
b1 "
b0 #
0;
17
#28000
b11011 0
b1 #
1;
1D"
1h"
b1 F"
b1 1"
1`!
1."
b1 j!
b1 U!
1&!
1R!
b1 0!
b1 y
1J
1v
b1 T
b1 ?
b1 <
b1 =
1/
1+
#29000
b11100 0
b0 #
0;
0D"
0h"
b0 F"
b0 1"
0`!
0."
b0 j!
b0 U!
0&!
0R!
b0 0!
b0 y
0J
0v
b0 T
b0 ?
b0 <
b0 =
0/
0+
#30000
b11101 0
b1011 1
b1100 1
b1 #
1;
1D"
1h"
b1 F"
b1 1"
1`!
1."
b1 j!
b1 U!
1&!
1R!
b1 0!
b1 y
1J
1v
b1 T
b1 ?
b1 <
b1 =
1/
1+
#31000
b11110 0
b1101 1
b1110 1
b0 #
0;
0D"
0h"
b0 F"
b0 1"
0`!
0."
b0 j!
b0 U!
0&!
0R!
b0 0!
b0 y
0J
0v
b0 T
b0 ?
b0 <
b0 =
0/
0+
#32000
b11111 0
b1111 1
b10000 1
b1 #
1;
1D"
1h"
b1 F"
b1 1"
1`!
1."
b1 j!
b1 U!
1&!
1R!
b1 0!
b1 y
1J
1v
b1 T
b1 ?
b1 <
b1 =
1/
1+
#33000
b100000 0
b10001 1
b10010 1
b0 #
0;
0D"
0h"
b0 F"
b0 1"
0`!
0."
b0 j!
b0 U!
0&!
0R!
b0 0!
b0 y
0J
0v
b0 T
b0 ?
b0 <
b0 =
0/
0+
#34000
b100001 0
b10011 1
b10100 1
b1 #
1;
1D"
1h"
b1 F"
b1 1"
1`!
1."
b1 j!
b1 U!
1&!
1R!
b1 0!
b1 y
1J
1v
b1 T
b1 ?
b1 <
b1 =
1/
1+
#35000
b100010 0
b10101 1
b10110 1
b0 #
0;
0D"
0h"
b0 F"
b0 1"
0`!
0."
b0 j!
b0 U!
0&!
0R!
b0 0!
b0 y
0J
0v
b0 T
b0 ?
b0 <
b0 =
0/
0+
#36000
b100011 0
b10111 1
b11000 1
b1 #
1;
1D"
1h"
b1 F"
b1 1"
1`!
1."
b1 j!
b1 U!
1&!
1R!
b1 0!
b1 y
1J
1v
b1 T
b1 ?
b1 <
b1 =
1/
1+
#37000
b100100 0
b11001 1
b11010 1
b0 #
0;
0D"
0h"
b0 F"
b0 1"
0`!
0."
b0 j!
b0 U!
0&!
0R!
b0 0!
b0 y
0J
0v
b0 T
b0 ?
b0 <
b0 =
0/
0+
#38000
b100101 0
b11011 1
b11100 1
b1 #
1;
1D"
1h"
b1 F"
b1 1"
1`!
1."
b1 j!
b1 U!
1&!
1R!
b1 0!
b1 y
1J
1v
b1 T
b1 ?
b1 <
b1 =
1/
1+
#39000
b100110 0
b11101 1
b11110 1
b0 #
0;
0D"
0h"
b0 F"
b0 1"
0`!
0."
b0 j!
b0 U!
0&!
0R!
b0 0!
b0 y
0J
0v
b0 T
b0 ?
b0 <
b0 =
0/
0+
#40000
b100111 0
b11111 1
b100000 1
b1 #
1;
1D"
1h"
b1 F"
b1 1"
1`!
1."
b1 j!
b1 U!
1&!
1R!
b1 0!
b1 y
1J
1v
b1 T
b1 ?
b1 <
b1 =
1/
1+
#41000
b101000 0
b100001 1
b100010 1
b0 #
0;
0D"
0h"
b0 F"
b0 1"
0`!
0."
b0 j!
b0 U!
0&!
0R!
b0 0!
b0 y
0J
0v
b0 T
b0 ?
b0 <
b0 =
0/
0+
#42000
b101001 0
b100011 1
b100100 1
b1 #
1;
1D"
1h"
b1 F"
b1 1"
1`!
1."
b1 j!
b1 U!
1&!
1R!
b1 0!
b1 y
1J
1v
b1 T
b1 ?
b1 <
b1 =
1/
1+
#43000
b101010 0
b100101 1
b100110 1
b0 "
b0 #
0;
07
0D"
0h"
b0 F"
b0 1"
0`!
0."
b0 j!
b0 U!
0&!
0R!
b0 0!
b0 y
0J
0v
b0 T
b0 ?
b0 <
b0 =
0/
0+
#44000
b101011 0
b1 #
1;
#45000
b101100 0
b100111 1
b101000 1
b0 #
0;
#46000
b101101 0
b101001 1
b101010 1
b1 #
1;
#47000
b101110 0
b101011 1
b101100 1
b0 #
0;
#48000
b101111 0
b101101 1
b101110 1
b1 #
1;
#49000
b110000 0
b101111 1
b110000 1
b0 #
0;
#50000
b110001 0
b110001 1
b110010 1
b1 #
1;
#51000
b110010 0
b110011 1
b110100 1
b0 #
0;
#52000
b110011 0
b110101 1
b1 #
1;
#53000
b110100 0
b110110 1
b110111 1
b0 #
0;
#54000
b110101 0
b111000 1
b111001 1
b1 #
1;
#55000
b110110 0
b111010 1
b111011 1
b0 #
0;
#56000
b110111 0
b111100 1
b111101 1
b1 #
1;
#57000
b111000 0
b111110 1
b111111 1
b0 #
0;
#58000
b111001 0
b1000000 1
b1000001 1
b1 #
1;
#59000
b111010 0
b1000010 1
b1000011 1
b1 "
b0 #
0;
17
#60000
b111011 0
b1 #
1;
1D"
1h"
b1 F"
b1 1"
1`!
1."
b1 j!
b1 U!
1&!
1R!
b1 0!
b1 y
1J
1v
b1 T
b1 ?
b1 <
b1 =
1/
1+
#61000
b111100 0
b1000100 1
b1000101 1
b0 #
0;
0D"
0h"
b0 F"
b0 1"
0`!
0."
b0 j!
b0 U!
0&!
0R!
b0 0!
b0 y
0J
0v
b0 T
b0 ?
b0 <
b0 =
0/
0+
#62000
b111101 0
b1000110 1
b1000111 1
b1 #
1;
1D"
1h"
b1 F"
b1 1"
1`!
1."
b1 j!
b1 U!
1&!
1R!
b1 0!
b1 y
1J
1v
b1 T
b1 ?
b1 <
b1 =
1/
1+
#63000
b111110 0
b1001000 1
b1001001 1
b0 #
0;
0D"
0h"
b0 F"
b0 1"
0`!
0."
b0 j!
b0 U!
0&!
0R!
b0 0!
b0 y
0J
0v
b0 T
b0 ?
b0 <
b0 =
0/
0+
#64000
b111111 0
b1001010 1
b1001011 1
b1 #
1;
1D"
1h"
b1 F"
b1 1"
1`!
1."
b1 j!
b1 U!
1&!
1R!
b1 0!
b1 y
1J
1v
b1 T
b1 ?
b1 <
b1 =
1/
1+
#65000
b1000000 0
b1001100 1
b1001101 1
b0 #
0;
0D"
0h"
b0 F"
b0 1"
0`!
0."
b0 j!
b0 U!
0&!
0R!
b0 0!
b0 y
0J
0v
b0 T
b0 ?
b0 <
b0 =
0/
0+
#66000
b1000001 0
b1001110 1
b1001111 1
b1 #
1;
1D"
1h"
b1 F"
b1 1"
1`!
1."
b1 j!
b1 U!
1&!
1R!
b1 0!
b1 y
1J
1v
b1 T
b1 ?
b1 <
b1 =
1/
1+
#67000
b1000010 0
b1010000 1
b1010001 1
b0 #
0;
0D"
0h"
b0 F"
b0 1"
0`!
0."
b0 j!
b0 U!
0&!
0R!
b0 0!
b0 y
0J
0v
b0 T
b0 ?
b0 <
b0 =
0/
0+
#68000
b1000011 0
b1010010 1
b1010011 1
b1 #
1;
1D"
1h"
b1 F"
b1 1"
1`!
1."
b1 j!
b1 U!
1&!
1R!
b1 0!
b1 y
1J
1v
b1 T
b1 ?
b1 <
b1 =
1/
1+
#69000
b1000100 0
b1010100 1
b1010101 1
b0 #
0;
0D"
0h"
b0 F"
b0 1"
0`!
0."
b0 j!
b0 U!
0&!
0R!
b0 0!
b0 y
0J
0v
b0 T
b0 ?
b0 <
b0 =
0/
0+
#70000
b1000101 0
b1010110 1
b1010111 1
b1 #
1;
1D"
1h"
b1 F"
b1 1"
1`!
1."
b1 j!
b1 U!
1&!
1R!
b1 0!
b1 y
1J
1v
b1 T
b1 ?
b1 <
b1 =
1/
1+
#71000
b1000110 0
b1011000 1
b0 #
0;
0D"
0h"
b0 F"
b0 1"
0`!
0."
b0 j!
b0 U!
0&!
0R!
b0 0!
b0 y
0J
0v
b0 T
b0 ?
b0 <
b0 =
0/
0+
#72000
b1000111 0
b1011001 1
b1011010 1
b1 #
1;
1D"
1h"
b1 F"
b1 1"
1`!
1."
b1 j!
b1 U!
1&!
1R!
b1 0!
b1 y
1J
1v
b1 T
b1 ?
b1 <
b1 =
1/
1+
#73000
b1001000 0
b1011011 1
b1011100 1
b0 #
0;
0D"
0h"
b0 F"
b0 1"
0`!
0."
b0 j!
b0 U!
0&!
0R!
b0 0!
b0 y
0J
0v
b0 T
b0 ?
b0 <
b0 =
0/
0+
#74000
b1001001 0
b1011101 1
b1011110 1
b1 #
1;
1D"
1h"
b1 F"
b1 1"
1`!
1."
b1 j!
b1 U!
1&!
1R!
b1 0!
b1 y
1J
1v
b1 T
b1 ?
b1 <
b1 =
1/
1+
#75000
b1001010 0
b1011111 1
b1100000 1
b0 "
b0 #
0;
07
0D"
0h"
b0 F"
b0 1"
0`!
0."
b0 j!
b0 U!
0&!
0R!
b0 0!
b0 y
0J
0v
b0 T
b0 ?
b0 <
b0 =
0/
0+
#76000
b1001011 0
b1 #
1;
#77000
b1001100 0
b1100001 1
b1100010 1
b0 #
0;
#78000
b1001101 0
b1100011 1
b1100100 1
b1 #
1;
#79000
b1001110 0
b1100101 1
b1100110 1
b0 #
0;
#80000
b1001111 0
b1100111 1
b1 #
1;
#81000
b1010000 0
b1101000 1
b1101001 1
b0 #
0;
#82000
b1010001 0
b1101010 1
b1101011 1
b1 #
1;
#83000
b1010010 0
b1101100 1
b1101101 1
b0 #
0;
#84000
b1010011 0
b1101110 1
b1 #
1;
#85000
b1010100 0
b1101111 1
b1110000 1
b0 #
0;
#86000
b1010101 0
b1110001 1
b1110010 1
b1 #
1;
#87000
b1010110 0
b1110011 1
b1110100 1
b0 #
0;
#88000
b1010111 0
b1110101 1
b1 #
1;
#89000
b1011000 0
b1110110 1
b1110111 1
b0 #
0;
#90000
b1011001 0
b1111000 1
b1111001 1
b1 #
1;
#91000
b1011010 0
b1111010 1
b1111011 1
b1 "
b0 #
0;
17
#92000
b1011011 0
b1 #
1;
1D"
1h"
b1 F"
b1 1"
1`!
1."
b1 j!
b1 U!
1&!
1R!
b1 0!
b1 y
1J
1v
b1 T
b1 ?
b1 <
b1 =
1/
1+
#93000
b1011100 0
b1111100 1
b1111101 1
b0 #
0;
0D"
0h"
b0 F"
b0 1"
0`!
0."
b0 j!
b0 U!
0&!
0R!
b0 0!
b0 y
0J
0v
b0 T
b0 ?
b0 <
b0 =
0/
0+
#94000
b1011101 0
b1111110 1
b1111111 1
b1 #
1;
1D"
1h"
b1 F"
b1 1"
1`!
1."
b1 j!
b1 U!
1&!
1R!
b1 0!
b1 y
1J
1v
b1 T
b1 ?
b1 <
b1 =
1/
1+
#95000
b1011110 0
b10000000 1
b10000001 1
b0 #
0;
0D"
0h"
b0 F"
b0 1"
0`!
0."
b0 j!
b0 U!
0&!
0R!
b0 0!
b0 y
0J
0v
b0 T
b0 ?
b0 <
b0 =
0/
0+
#96000
b1011111 0
b10000010 1
b10000011 1
b1 #
1;
1D"
1h"
b1 F"
b1 1"
1`!
1."
b1 j!
b1 U!
1&!
1R!
b1 0!
b1 y
1J
1v
b1 T
b1 ?
b1 <
b1 =
1/
1+
#97000
b1100000 0
b10000100 1
b10000101 1
b0 #
0;
0D"
0h"
b0 F"
b0 1"
0`!
0."
b0 j!
b0 U!
0&!
0R!
b0 0!
b0 y
0J
0v
b0 T
b0 ?
b0 <
b0 =
0/
0+
#98000
b1100001 0
b10000110 1
b10000111 1
b1 #
1;
1D"
1h"
b1 F"
b1 1"
1`!
1."
b1 j!
b1 U!
1&!
1R!
b1 0!
b1 y
1J
1v
b1 T
b1 ?
b1 <
b1 =
1/
1+
#99000
b1100010 0
b10001000 1
b10001001 1
b0 #
0;
0D"
0h"
b0 F"
b0 1"
0`!
0."
b0 j!
b0 U!
0&!
0R!
b0 0!
b0 y
0J
0v
b0 T
b0 ?
b0 <
b0 =
0/
0+
#100000
b1100011 0
b10001010 1
b10001011 1
b1 #
1;
1D"
1h"
b1 F"
b1 1"
1`!
1."
b1 j!
b1 U!
1&!
1R!
b1 0!
b1 y
1J
1v
b1 T
b1 ?
b1 <
b1 =
1/
1+
#101000
b1100100 0
b10001100 1
b10001101 1
b0 #
0;
0D"
0h"
b0 F"
b0 1"
0`!
0."
b0 j!
b0 U!
0&!
0R!
b0 0!
b0 y
0J
0v
b0 T
b0 ?
b0 <
b0 =
0/
0+
#102000
b1100101 0
b10001110 1
b10001111 1
b1 #
1;
1D"
1h"
b1 F"
b1 1"
1`!
1."
b1 j!
b1 U!
1&!
1R!
b1 0!
b1 y
1J
1v
b1 T
b1 ?
b1 <
b1 =
1/
1+
