problema1/simulation/modelsim/tb_problema1_flags.vcd
$date
	Tue Sep 02 17:49:02 2025
$end
$version
	ModelSim Version 2020.1
$end
$timescale
	1ps
$end

$scope module tb_problema1_flags $end
$var parameter 32 ! WIDTH $end
$var parameter 32 " MASK $end
$var parameter 4 # OP_ADD $end
$var parameter 4 $ OP_SUB $end
$var parameter 4 % OP_DIV $end
$var parameter 4 & OP_AND $end
$var parameter 4 ' OP_OR $end
$var parameter 4 ( OP_XOR $end
$var parameter 4 ) OP_MOD $end
$var parameter 4 * OP_SHL $end
$var parameter 4 + OP_SHR $end
$var reg 4 , A [3:0] $end
$var reg 4 - B [3:0] $end
$var reg 4 . opcode [3:0] $end
$var wire 1 / result [3] $end
$var wire 1 0 result [2] $end
$var wire 1 1 result [1] $end
$var wire 1 2 result [0] $end
$var wire 1 3 N $end
$var wire 1 4 Z $end
$var wire 1 5 C $end
$var wire 1 6 V $end
$var integer 32 7 total $end
$var integer 32 8 errors $end

$scope function model_result $end
$upscope $end

$scope function model_flags $end
$upscope $end

$scope task check_case $end
$upscope $end

$scope module dut $end
$var parameter 32 9 WIDTH $end
$var wire 1 : A [3] $end
$var wire 1 ; A [2] $end
$var wire 1 < A [1] $end
$var wire 1 = A [0] $end
$var wire 1 > B [3] $end
$var wire 1 ? B [2] $end
$var wire 1 @ B [1] $end
$var wire 1 A B [0] $end
$var wire 1 B opcode [3] $end
$var wire 1 C opcode [2] $end
$var wire 1 D opcode [1] $end
$var wire 1 E opcode [0] $end
$var reg 4 F result [3:0] $end
$var reg 1 G N $end
$var reg 1 H Z $end
$var reg 1 I C $end
$var reg 1 J V $end
$var reg 4 K addResult [3:0] $end
$var reg 1 L addCout $end
$var reg 4 M subResult [3:0] $end
$var reg 1 N subBorrow $end
$var reg 4 O Q_div [3:0] $end
$var reg 4 P Q_mod [3:0] $end
$var reg 1 Q div0 $end
$var reg 4 R Q_and [3:0] $end
$var reg 4 S Q_or [3:0] $end
$var reg 4 T Q_xor [3:0] $end
$var reg 4 U Q_shl [3:0] $end
$var reg 4 V Q_shr [3:0] $end

$scope module u_add $end
$var parameter 32 W N $end
$var wire 1 : A [3] $end
$var wire 1 ; A [2] $end
$var wire 1 < A [1] $end
$var wire 1 = A [0] $end
$var wire 1 > B [3] $end
$var wire 1 ? B [2] $end
$var wire 1 @ B [1] $end
$var wire 1 A B [0] $end
$var wire 1 X CIN $end
$var reg 4 Y suma [3:0] $end
$var reg 1 Z cout $end
$var reg 4 [ carry [3:0] $end

$scope begin sum_loop[3] $end
$var parameter 32 \ i $end

$scope begin genblk1 $end

$scope module fa $end
$var wire 1 : A $end
$var wire 1 > B $end
$var wire 1 ] Carry $end
$var reg 1 ^ suma $end
$var reg 1 _ Cout $end
$upscope $end
$upscope $end
$upscope $end

$scope begin sum_loop[2] $end
$var parameter 32 ` i $end

$scope begin genblk1 $end

$scope module fa $end
$var wire 1 ; A $end
$var wire 1 ? B $end
$var wire 1 a Carry $end
$var reg 1 b suma $end
$var reg 1 c Cout $end
$upscope $end
$upscope $end
$upscope $end

$scope begin sum_loop[1] $end
$var parameter 32 d i $end

$scope begin genblk1 $end

$scope module fa $end
$var wire 1 < A $end
$var wire 1 @ B $end
$var wire 1 e Carry $end
$var reg 1 f suma $end
$var reg 1 g Cout $end
$upscope $end
$upscope $end
$upscope $end

$scope begin sum_loop[0] $end
$var parameter 32 h i $end

$scope begin genblk1 $end

$scope module fa $end
$var wire 1 = A $end
$var wire 1 A B $end
$var wire 1 X Carry $end
$var reg 1 i suma $end
$var reg 1 j Cout $end
$upscope $end
$upscope $end
$upscope $end
$upscope $end

$scope module u_sub $end
$var parameter 32 k N $end
$var wire 1 : A [3] $end
$var wire 1 ; A [2] $end
$var wire 1 < A [1] $end
$var wire 1 = A [0] $end
$var wire 1 > B [3] $end
$var wire 1 ? B [2] $end
$var wire 1 @ B [1] $end
$var wire 1 A B [0] $end
$var wire 1 l BORROW_IN $end
$var reg 4 m DIFF [3:0] $end
$var reg 1 n BORROW_OUT $end
$var reg 4 o B_comp [3:0] $end
$var reg 1 p carry_internal $end

$scope module U1 $end
$var parameter 32 q N $end
$var wire 1 : A [3] $end
$var wire 1 ; A [2] $end
$var wire 1 < A [1] $end
$var wire 1 = A [0] $end
$var wire 1 r B [3] $end
$var wire 1 s B [2] $end
$var wire 1 t B [1] $end
$var wire 1 u B [0] $end
$var wire 1 v CIN $end
$var reg 4 w suma [3:0] $end
$var reg 1 x cout $end
$var reg 4 y carry [3:0] $end

$scope begin sum_loop[3] $end
$var parameter 32 z i $end

$scope begin genblk1 $end

$scope module fa $end
$var wire 1 : A $end
$var wire 1 r B $end
$var wire 1 { Carry $end
$var reg 1 | suma $end
$var reg 1 } Cout $end
$upscope $end
$upscope $end
$upscope $end

$scope begin sum_loop[2] $end
$var parameter 32 ~ i $end

$scope begin genblk1 $end

$scope module fa $end
$var wire 1 ; A $end
$var wire 1 s B $end
$var wire 1 !! Carry $end
$var reg 1 "! suma $end
$var reg 1 #! Cout $end
$upscope $end
$upscope $end
$upscope $end

$scope begin sum_loop[1] $end
$var parameter 32 $! i $end

$scope begin genblk1 $end

$scope module fa $end
$var wire 1 < A $end
$var wire 1 t B $end
$var wire 1 %! Carry $end
$var reg 1 &! suma $end
$var reg 1 '! Cout $end
$upscope $end
$upscope $end
$upscope $end

$scope begin sum_loop[0] $end
$var parameter 32 (! i $end

$scope begin genblk1 $end

$scope module fa $end
$var wire 1 = A $end
$var wire 1 u B $end
$var wire 1 v Carry $end
$var reg 1 )! suma $end
$var reg 1 *! Cout $end
$upscope $end
$upscope $end
$upscope $end
$upscope $end
$upscope $end
$upscope $end
$upscope $end
$enddefinitions $end
#0
$dumpvars
b1 ,
b1 -
b0 .
b10 F
0G
0H
0I
0J
b10 K
0L
b10 Y
0Z
b1 [
0i
1j
1f
0g
0b
0c
0^
0_
b0 M
0N
b0 m
0n
b1110 o
1p
b0 w
1x
b1111 y
0)!
1*!
0&!
1'!
0"!
1#!
0|
1}
b1 O
b0 P
0Q
b1 R
b1 S
b0 T
b10 U
b0 V
b100 !
b1111 "
b0 #
b1 $
b10 %
b11 &
b100 '
b101 (
b110 )
b111 *
b1000 +
b100 9
b100 W
b100 k
b100 q
b0 h
b1 d
b10 `
b11 \
b0 (!
b1 $!
b10 ~
b11 z
b0 7
b0 8
02
11
00
0/
03
04
05
06
1=
0<
0;
0:
1A
0@
0?
0>
0E
0D
0C
0B
0l
0X
1e
0a
0]
1v
0u
1t
1s
1r
1%!
1!!
1{
$end
#1000
b1 7
b0 ,
b0 -
0A
0=
1)!
0*!
b10 K
b0 M
b1 O
b0 P
b1 R
b1 S
b0 T
b0 U
b0 V
0j
b1111 o
b10 K
b0 M
b1 O
b0 P
b0 R
b1 S
b0 T
b0 U
b0 V
b10 K
b0 M
b1 O
b0 P
b0 R
b0 S
b0 T
b0 U
b0 V
b0 [
b1110 y
b1 w
1u
0)!
1*!
b1 m
b10 K
b1 M
b1 O
b0 P
b0 R
b0 S
b0 T
b0 U
b0 V
b1111 y
b0 w
0%!
0e
0f
1&!
0'!
b0 m
b10 K
b0 M
b1 O
b0 P
b0 R
b0 S
b0 T
b0 U
b0 V
b1101 y
b10 w
b0 Y
1%!
0&!
1'!
b0 K
b0 M
b1 O
b0 P
b0 R
b0 S
b0 T
b0 U
b0 V
b10 m
b0 K
b10 M
b1 O
b0 P
b0 R
b0 S
b0 T
b0 U
b0 V
b1111 y
b0 w
0!!
1"!
0#!
b0 m
b0 K
b0 M
b1 O
b0 P
b0 R
b0 S
b0 T
b0 U
b0 V
b1011 y
b100 w
1!!
0"!
1#!
b100 m
b0 K
b100 M
b1 O
b0 P
b0 R
b0 S
b0 T
b0 U
b0 V
b1111 y
b0 w
0{
1|
0}
b0 m
b0 K
b0 M
b1 O
b0 P
b0 R
b0 S
b0 T
b0 U
b0 V
b111 y
b1000 w
1{
0|
1}
b1000 m
0x
0p
b0 K
b1000 M
b1 O
b0 P
b0 R
b0 S
b0 T
b0 U
b0 V
b1111 y
b0 w
b0 m
1x
1n
1N
1p
b0 K
b0 M
b1 O
b0 P
b0 R
b0 S
b0 T
b0 U
b0 V
0n
0N
b0 F
b0 K
b0 M
b0 O
b0 P
b0 R
b0 S
b0 T
b0 U
b0 V
1Q
1H
01
14
#2000
b10 7
b1 ,
b1 -
1A
1=
1)!
b0 K
b0 M
b0 O
b0 P
b0 R
b0 S
b0 T
b10 U
b0 V
1j
b1110 o
b0 K
b0 M
b0 O
b0 P
b1 R
b0 S
b0 T
b10 U
b0 V
b0 K
b0 M
b0 O
b0 P
b1 R
b1 S
b0 T
b10 U
b0 V
b1 [
b1 w
0u
0)!
b1 m
b0 K
b1 M
b0 O
b0 P
b1 R
b1 S
b0 T
b10 U
b0 V
b0 w
1e
1f
b0 m
b0 K
b0 M
b0 O
b0 P
b1 R
b1 S
b0 T
b10 U
b0 V
b10 Y
b10 K
b0 M
b0 O
b0 P
b1 R
b1 S
b0 T
b10 U
b0 V
b10 F
b10 K
b0 M
b1 O
b0 P
b1 R
b1 S
b0 T
b10 U
b0 V
0Q
0H
11
04
#3000
b11 7
b0 ,
b1 .
1E
0=
1i
0j
1)!
0*!
b10 K
b0 M
b1 O
b0 P
b0 R
b1 S
b0 T
b10 U
b0 V
b10 K
b0 M
b1 O
b0 P
b0 R
b1 S
b1 T
b10 U
b0 V
b10 K
b0 M
b1 O
b0 P
b0 R
b1 S
b1 T
b0 U
b0 V
b1110 y
b1 w
b0 [
b11 Y
b11 K
b0 M
b1 O
b0 P
b0 R
b1 S
b1 T
b0 U
b0 V
b1 m
b11 K
b1 M
b1 O
b0 P
b0 R
b1 S
b1 T
b0 U
b0 V
0e
0%!
1&!
0'!
0f
b1 Y
b1100 y
b11 w
b11 m
b1 K
b1 M
b1 O
b0 P
b0 R
b1 S
b1 T
b0 U
b0 V
b1 K
b11 M
b1 O
b0 P
b0 R
b1 S
b1 T
b0 U
b0 V
0!!
1"!
0#!
b1000 y
b111 w
b111 m
b1 K
b111 M
b1 O
b0 P
b0 R
b1 S
b1 T
b0 U
b0 V
0{
1|
0}
b0 y
b1111 w
b1111 m
0x
0p
b1 K
b1111 M
b1 O
b0 P
b0 R
b1 S
b1 T
b0 U
b0 V
1n
1N
b1 K
b1111 M
b0 O
b0 P
b0 R
b1 S
b1 T
b0 U
b0 V
b1111 F
1G
12
10
1/
13
#4000
b100 7
b1 ,
b0 -
0A
1=
0)!
1*!
b1 K
b1111 M
b0 O
b0 P
b0 R
b1 S
b1 T
b10 U
b0 V
b1111 o
b1 y
b1110 w
1u
1)!
b1110 m
b1 K
b1110 M
b0 O
b0 P
b0 R
b1 S
b1 T
b10 U
b0 V
b1111 w
1%!
0&!
1'!
b1111 m
b1 K
b1111 M
b0 O
b0 P
b0 R
b1 S
b1 T
b10 U
b0 V
b11 y
b1101 w
b1101 m
b1 K
b1101 M
b0 O
b0 P
b0 R
b1 S
b1 T
b10 U
b0 V
1!!
0"!
1#!
b111 y
b1001 w
b1001 m
b1 K
b1001 M
b0 O
b0 P
b0 R
b1 S
b1 T
b10 U
b0 V
1{
0|
1}
b1111 y
b1 w
b1 m
1x
1p
b1 K
b1 M
b0 O
b0 P
b0 R
b1 S
b1 T
b10 U
b0 V
0n
0N
b1 F
1I
1Q
0G
01
00
0/
15
03
0I
1I
#5000
b101 7
b1 -
1A
0i
1j
b1110 o
b1 K
b1 M
b0 O
b0 P
b1 R
b1 S
b1 T
b10 U
b0 V
b1 K
b1 M
b0 O
b0 P
b1 R
b1 S
b0 T
b10 U
b0 V
b1 [
b0 Y
0u
0)!
b0 K
b1 M
b0 O
b0 P
b1 R
b1 S
b0 T
b10 U
b0 V
b0 w
1e
1f
b0 m
b0 K
b0 M
b0 O
b0 P
b1 R
b1 S
b0 T
b10 U
b0 V
b10 Y
b10 K
b0 M
b0 O
b0 P
b1 R
b1 S
b0 T
b10 U
b0 V
b0 F
b10 K
b0 M
b1 O
b0 P
b1 R
b1 S
b0 T
b10 U
b0 V
0Q
1H
02
14
0I
1I
#6000
b110 7
b10 .
0E
1D
b1 F
0I
0H
12
05
04
#7000
b111 7
b0 ,
b0 -
0A
0=
1)!
0*!
b10 K
b0 M
b1 O
b0 P
b1 R
b1 S
b0 T
b0 U
b0 V
0j
b1111 o
b10 K
b0 M
b1 O
b0 P
b0 R
b1 S
b0 T
b0 U
b0 V
b10 K
b0 M
b1 O
b0 P
b0 R
b0 S
b0 T
b0 U
b0 V
b0 [
b1110 y
b1 w
1u
0)!
1*!
b1 m
b10 K
b1 M
b1 O
b0 P
b0 R
b0 S
b0 T
b0 U
b0 V
b1111 y
b0 w
0%!
0e
0f
1&!
0'!
b0 m
b10 K
b0 M
b1 O
b0 P
b0 R
b0 S
b0 T
b0 U
b0 V
b1101 y
b10 w
b0 Y
1%!
0&!
1'!
b0 K
b0 M
b1 O
b0 P
b0 R
b0 S
b0 T
b0 U
b0 V
b10 m
b0 K
b10 M
b1 O
b0 P
b0 R
b0 S
b0 T
b0 U
b0 V
b1111 y
b0 w
0!!
1"!
0#!
b0 m
b0 K
b0 M
b1 O
b0 P
b0 R
b0 S
b0 T
b0 U
b0 V
b1011 y
b100 w
1!!
0"!
1#!
b100 m
b0 K
b100 M
b1 O
b0 P
b0 R
b0 S
b0 T
b0 U
b0 V
b1111 y
b0 w
0{
1|
0}
b0 m
b0 K
b0 M
b1 O
b0 P
b0 R
b0 S
b0 T
b0 U
b0 V
b111 y
b1000 w
1{
0|
1}
b1000 m
0x
0p
b0 K
b1000 M
b1 O
b0 P
b0 R
b0 S
b0 T
b0 U
b0 V
b1111 y
b0 w
b0 m
1x
1n
1N
1p
b0 K
b0 M
b1 O
b0 P
b0 R
b0 S
b0 T
b0 U
b0 V
0n
0N
b0 K
b0 M
b0 O
b0 P
b0 R
b0 S
b0 T
b0 U
b0 V
1Q
1J
b0 F
1H
16
02
14
#8000
b1000 7
b1 ,
b110 .
1C
1=
1i
1)!
b0 K
b0 M
b0 O
b0 P
b0 R
b1 S
b0 T
b0 U
b0 V
b0 K
b0 M
b0 O
b0 P
b0 R
b1 S
b1 T
b0 U
b0 V
b0 K
b0 M
b0 O
b0 P
b0 R
b1 S
b1 T
b10 U
b0 V
b1 w
b1 Y
b1 K
b0 M
b0 O
b0 P
b0 R
b1 S
b1 T
b10 U
b0 V
b1 m
b1 K
b1 M
b0 O
b0 P
b0 R
b1 S
b1 T
b10 U
b0 V
0J
06
#9000
b1001 7
#10000
b1010 7
b0 ,
b1 -
b11 .
1E
0C
1A
0=
0)!
b1 K
b1 M
b0 O
b0 P
b0 R
b1 S
b1 T
b0 U
b0 V
b1110 o
b0 w
0u
1)!
0*!
b0 m
b1 K
b0 M
b0 O
b0 P
b0 R
b1 S
b1 T
b0 U
b0 V
b1110 y
b1 w
b1 m
b1 K
b1 M
b0 O
b0 P
b0 R
b1 S
b1 T
b0 U
b0 V
0%!
1&!
0'!
b1100 y
b11 w
b11 m
b1 K
b11 M
b0 O
b0 P
b0 R
b1 S
b1 T
b0 U
b0 V
0!!
1"!
0#!
b1000 y
b111 w
b111 m
b1 K
b111 M
b0 O
b0 P
b0 R
b1 S
b1 T
b0 U
b0 V
0{
1|
0}
b0 y
b1111 w
b1111 m
0x
0p
b1 K
b1111 M
b0 O
b0 P
b0 R
b1 S
b1 T
b0 U
b0 V
1n
1N
0Q
#11000
b1011 7
b100 .
0E
0D
1C
b1 F
0H
12
04
#12000
b1100 7
b101 .
1E
#13000
b1101 7
b1 ,
b0 -
b111 .
1D
0A
1=
0)!
1*!
b1 K
b1111 M
b0 O
b0 P
b0 R
b1 S
b1 T
b10 U
b0 V
b1111 o
b1 y
b1110 w
1u
1)!
b1110 m
b1 K
b1110 M
b0 O
b0 P
b0 R
b1 S
b1 T
b10 U
b0 V
b1111 w
1%!
0&!
1'!
b1111 m
b1 K
b1111 M
b0 O
b0 P
b0 R
b1 S
b1 T
b10 U
b0 V
b11 y
b1101 w
b1101 m
b1 K
b1101 M
b0 O
b0 P
b0 R
b1 S
b1 T
b10 U
b0 V
1!!
0"!
1#!
b111 y
b1001 w
b1001 m
b1 K
b1001 M
b0 O
b0 P
b0 R
b1 S
b1 T
b10 U
b0 V
1{
0|
1}
b1111 y
b1 w
b1 m
1x
1p
b1 K
b1 M
b0 O
b0 P
b0 R
b1 S
b1 T
b10 U
b0 V
0n
0N
1Q
b10 F
02
11
#14000
b1110 7
b1000 .
0E
0D
0C
1B
b0 F
1I
1H
01
15
14
#15000
b1111 7
b0 ,
b0 .
0B
0=
0i
0)!
b1 K
b1 M
b0 O
b0 P
b0 R
b0 S
b1 T
b10 U
b0 V
b1 K
b1 M
b0 O
b0 P
b0 R
b0 S
b0 T
b10 U
b0 V
b1 K
b1 M
b0 O
b0 P
b0 R
b0 S
b0 T
b0 U
b0 V
b0 w
b0 Y
b0 K
b1 M
b0 O
b0 P
b0 R
b0 S
b0 T
b0 U
b0 V
b0 m
b0 K
b0 M
b0 O
b0 P
b0 R
b0 S
b0 T
b0 U
b0 V
0I
05
#16000
b10000 7
b1 -
1A
1i
b1110 o
b0 K
b0 M
b0 O
b0 P
b0 R
b1 S
b0 T
b0 U
b0 V
b0 K
b0 M
b0 O
b0 P
b0 R
b1 S
b1 T
b0 U
b0 V
b1 Y
0u
1)!
0*!
b1 K
b0 M
b0 O
b0 P
b0 R
b1 S
b1 T
b0 U
b0 V
b1110 y
b1 w
b1 m
b1 K
b1 M
b0 O
b0 P
b0 R
b1 S
b1 T
b0 U
b0 V
0%!
1&!
0'!
b1100 y
b11 w
b11 m
b1 K
b11 M
b0 O
b0 P
b0 R
b1 S
b1 T
b0 U
b0 V
0!!
1"!
0#!
b1000 y
b111 w
b111 m
b1 K
b111 M
b0 O
b0 P
b0 R
b1 S
b1 T
b0 U
b0 V
0{
1|
0}
b0 y
b1111 w
b1111 m
0x
0p
b1 K
b1111 M
b0 O
b0 P
b0 R
b1 S
b1 T
b0 U
b0 V
1n
1N
b1 F
0Q
0H
12
04
#17000
b10001 7
b0 -
0A
0i
b1111 o
b1 K
b1111 M
b0 O
b0 P
b0 R
b0 S
b1 T
b0 U
b0 V
b1 K
b1111 M
b0 O
b0 P
b0 R
b0 S
b0 T
b0 U
b0 V
b0 Y
1u
0)!
1*!
b0 K
b1111 M
b0 O
b0 P
b0 R
b0 S
b0 T
b0 U
b0 V
b1 y
b1110 w
b1110 m
b0 K
b1110 M
b0 O
b0 P
b0 R
b0 S
b0 T
b0 U
b0 V
1%!
0&!
1'!
b11 y
b1100 w
b1100 m
b0 K
b1100 M
b0 O
b0 P
b0 R
b0 S
b0 T
b0 U
b0 V
1!!
0"!
1#!
b111 y
b1000 w
b1000 m
b0 K
b1000 M
b0 O
b0 P
b0 R
b0 S
b0 T
b0 U
b0 V
1{
0|
1}
b1111 y
b0 w
b0 m
1x
1p
b0 K
b0 M
b0 O
b0 P
b0 R
b0 S
b0 T
b0 U
b0 V
0n
0N
b0 F
1Q
1H
02
14
#18000
b10010 7
b1 -
1A
1i
b1110 o
b0 K
b0 M
b0 O
b0 P
b0 R
b1 S
b0 T
b0 U
b0 V
b0 K
b0 M
b0 O
b0 P
b0 R
b1 S
b1 T
b0 U
b0 V
b1 Y
0u
1)!
0*!
b1 K
b0 M
b0 O
b0 P
b0 R
b1 S
b1 T
b0 U
b0 V
b1110 y
b1 w
b1 m
b1 K
b1 M
b0 O
b0 P
b0 R
b1 S
b1 T
b0 U
b0 V
0%!
1&!
0'!
b1100 y
b11 w
b11 m
b1 K
b11 M
b0 O
b0 P
b0 R
b1 S
b1 T
b0 U
b0 V
0!!
1"!
0#!
b1000 y
b111 w
b111 m
b1 K
b111 M
b0 O
b0 P
b0 R
b1 S
b1 T
b0 U
b0 V
0{
1|
0}
b0 y
b1111 w
b1111 m
0x
0p
b1 K
b1111 M
b0 O
b0 P
b0 R
b1 S
b1 T
b0 U
b0 V
1n
1N
b1 F
0Q
0H
12
04
#19000
b10011 7
b0 -
0A
0i
b1111 o
b1 K
b1111 M
b0 O
b0 P
b0 R
b0 S
b1 T
b0 U
b0 V
b1 K
b1111 M
b0 O
b0 P
b0 R
b0 S
b0 T
b0 U
b0 V
b0 Y
1u
0)!
1*!
b0 K
b1111 M
b0 O
b0 P
b0 R
b0 S
b0 T
b0 U
b0 V
b1 y
b1110 w
b1110 m
b0 K
b1110 M
b0 O
b0 P
b0 R
b0 S
b0 T
b0 U
b0 V
1%!
0&!
1'!
b11 y
b1100 w
b1100 m
b0 K
b1100 M
b0 O
b0 P
b0 R
b0 S
b0 T
b0 U
b0 V
1!!
0"!
1#!
b111 y
b1000 w
b1000 m
b0 K
b1000 M
b0 O
b0 P
b0 R
b0 S
b0 T
b0 U
b0 V
1{
0|
1}
b1111 y
b0 w
b0 m
1x
1p
b0 K
b0 M
b0 O
b0 P
b0 R
b0 S
b0 T
b0 U
b0 V
0n
0N
b0 F
1Q
1H
02
14
#20000
b10100 7
b1 -
1A
1i
b1110 o
b0 K
b0 M
b0 O
b0 P
b0 R
b1 S
b0 T
b0 U
b0 V
b0 K
b0 M
b0 O
b0 P
b0 R
b1 S
b1 T
b0 U
b0 V
b1 Y
0u
1)!
0*!
b1 K
b0 M
b0 O
b0 P
b0 R
b1 S
b1 T
b0 U
b0 V
b1110 y
b1 w
b1 m
b1 K
b1 M
b0 O
b0 P
b0 R
b1 S
b1 T
b0 U
b0 V
0%!
1&!
0'!
b1100 y
b11 w
b11 m
b1 K
b11 M
b0 O
b0 P
b0 R
b1 S
b1 T
b0 U
b0 V
0!!
1"!
0#!
b1000 y
b111 w
b111 m
b1 K
b111 M
b0 O
b0 P
b0 R
b1 S
b1 T
b0 U
b0 V
0{
1|
0}
b0 y
b1111 w
b1111 m
0x
0p
b1 K
b1111 M
b0 O
b0 P
b0 R
b1 S
b1 T
b0 U
b0 V
1n
1N
b1 F
0Q
0H
12
04
#21000
b10101 7
b0 -
0A
0i
b1111 o
b1 K
b1111 M
b0 O
b0 P
b0 R
b0 S
b1 T
b0 U
b0 V
b1 K
b1111 M
b0 O
b0 P
b0 R
b0 S
b0 T
b0 U
b0 V
b0 Y
1u
0)!
1*!
b0 K
b1111 M
b0 O
b0 P
b0 R
b0 S
b0 T
b0 U
b0 V
b1 y
b1110 w
b1110 m
b0 K
b1110 M
b0 O
b0 P
b0 R
b0 S
b0 T
b0 U
b0 V
1%!
0&!
1'!
b11 y
b1100 w
b1100 m
b0 K
b1100 M
b0 O
b0 P
b0 R
b0 S
b0 T
b0 U
b0 V
1!!
0"!
1#!
b111 y
b1000 w
b1000 m
b0 K
b1000 M
b0 O
b0 P
b0 R
b0 S
b0 T
b0 U
b0 V
1{
0|
1}
b1111 y
b0 w
b0 m
1x
1p
b0 K
b0 M
b0 O
b0 P
b0 R
b0 S
b0 T
b0 U
b0 V
0n
0N
b0 F
1Q
1H
02
14
#22000
b10110 7
b1 -
1A
1i
b1110 o
b0 K
b0 M
b0 O
b0 P
b0 R
b1 S
b0 T
b0 U
b0 V
b0 K
b0 M
b0 O
b0 P
b0 R
b1 S
b1 T
b0 U
b0 V
b1 Y
0u
1)!
0*!
b1 K
b0 M
b0 O
b0 P
b0 R
b1 S
b1 T
b0 U
b0 V
b1110 y
b1 w
b1 m
b1 K
b1 M
b0 O
b0 P
b0 R
b1 S
b1 T
b0 U
b0 V
0%!
1&!
0'!
b1100 y
b11 w
b11 m
b1 K
b11 M
b0 O
b0 P
b0 R
b1 S
b1 T
b0 U
b0 V
0!!
1"!
0#!
b1000 y
b111 w
b111 m
b1 K
b111 M
b0 O
b0 P
b0 R
b1 S
b1 T
b0 U
b0 V
0{
1|
0}
b0 y
b1111 w
b1111 m
0x
0p
b1 K
b1111 M
b0 O
b0 P
b0 R
b1 S
b1 T
b0 U
b0 V
1n
1N
b1 F
0Q
0H
12
04
#23000
b10111 7
b0 -
0A
0i
b1111 o
b1 K
b1111 M
b0 O
b0 P
b0 R
b0 S
b1 T
b0 U
b0 V
b1 K
b1111 M
b0 O
b0 P
b0 R
b0 S
b0 T
b0 U
b0 V
b0 Y
1u
0)!
1*!
b0 K
b1111 M
b0 O
b0 P
b0 R
b0 S
b0 T
b0 U
b0 V
b1 y
b1110 w
b1110 m
b0 K
b1110 M
b0 O
b0 P
b0 R
b0 S
b0 T
b0 U
b0 V
1%!
0&!
1'!
b11 y
b1100 w
b1100 m
b0 K
b1100 M
b0 O
b0 P
b0 R
b0 S
b0 T
b0 U
b0 V
1!!
0"!
1#!
b111 y
b1000 w
b1000 m
b0 K
b1000 M
b0 O
b0 P
b0 R
b0 S
b0 T
b0 U
b0 V
1{
0|
1}
b1111 y
b0 w
b0 m
1x
1p
b0 K
b0 M
b0 O
b0 P
b0 R
b0 S
b0 T
b0 U
b0 V
0n
0N
b0 F
1Q
1H
02
14
#24000
b11000 7
b1 -
1A
1i
b1110 o
b0 K
b0 M
b0 O
b0 P
b0 R
b1 S
b0 T
b0 U
b0 V
b0 K
b0 M
b0 O
b0 P
b0 R
b1 S
b1 T
b0 U
b0 V
b1 Y
0u
1)!
0*!
b1 K
b0 M
b0 O
b0 P
b0 R
b1 S
b1 T
b0 U
b0 V
b1110 y
b1 w
b1 m
b1 K
b1 M
b0 O
b0 P
b0 R
b1 S
b1 T
b0 U
b0 V
0%!
1&!
0'!
b1100 y
b11 w
b11 m
b1 K
b11 M
b0 O
b0 P
b0 R
b1 S
b1 T
b0 U
b0 V
0!!
1"!
0#!
b1000 y
b111 w
b111 m
b1 K
b111 M
b0 O
b0 P
b0 R
b1 S
b1 T
b0 U
b0 V
0{
1|
0}
b0 y
b1111 w
b1111 m
0x
0p
b1 K
b1111 M
b0 O
b0 P
b0 R
b1 S
b1 T
b0 U
b0 V
1n
1N
b1 F
0Q
0H
12
04
#25000
b11001 7
b0 -
0A
0i
b1111 o
b1 K
b1111 M
b0 O
b0 P
b0 R
b0 S
b1 T
b0 U
b0 V
b1 K
b1111 M
b0 O
b0 P
b0 R
b0 S
b0 T
b0 U
b0 V
b0 Y
1u
0)!
1*!
b0 K
b1111 M
b0 O
b0 P
b0 R
b0 S
b0 T
b0 U
b0 V
b1 y
b1110 w
b1110 m
b0 K
b1110 M
b0 O
b0 P
b0 R
b0 S
b0 T
b0 U
b0 V
1%!
0&!
1'!
b11 y
b1100 w
b1100 m
b0 K
b1100 M
b0 O
b0 P
b0 R
b0 S
b0 T
b0 U
b0 V
1!!
0"!
1#!
b111 y
b1000 w
b1000 m
b0 K
b1000 M
b0 O
b0 P
b0 R
b0 S
b0 T
b0 U
b0 V
1{
0|
1}
b1111 y
b0 w
b0 m
1x
1p
b0 K
b0 M
b0 O
b0 P
b0 R
b0 S
b0 T
b0 U
b0 V
0n
0N
b0 F
1Q
1H
02
14
#26000
b11010 7
b1 -
1A
1i
b1110 o
b0 K
b0 M
b0 O
b0 P
b0 R
b1 S
b0 T
b0 U
b0 V
b0 K
b0 M
b0 O
b0 P
b0 R
b1 S
b1 T
b0 U
b0 V
b1 Y
0u
1)!
0*!
b1 K
b0 M
b0 O
b0 P
b0 R
b1 S
b1 T
b0 U
b0 V
b1110 y
b1 w
b1 m
b1 K
b1 M
b0 O
b0 P
b0 R
b1 S
b1 T
b0 U
b0 V
0%!
1&!
0'!
b1100 y
b11 w
b11 m
b1 K
b11 M
b0 O
b0 P
b0 R
b1 S
b1 T
b0 U
b0 V
0!!
1"!
0#!
b1000 y
b111 w
b111 m
b1 K
b111 M
b0 O
b0 P
b0 R
b1 S
b1 T
b0 U
b0 V
0{
1|
0}
b0 y
b1111 w
b1111 m
0x
0p
b1 K
b1111 M
b0 O
b0 P
b0 R
b1 S
b1 T
b0 U
b0 V
1n
1N
b1 F
0Q
0H
12
04
#27000
b11011 7
b0 -
0A
0i
b1111 o
b1 K
b1111 M
b0 O
b0 P
b0 R
b0 S
b1 T
b0 U
b0 V
b1 K
b1111 M
b0 O
b0 P
b0 R
b0 S
b0 T
b0 U
b0 V
b0 Y
1u
0)!
1*!
b0 K
b1111 M
b0 O
b0 P
b0 R
b0 S
b0 T
b0 U
b0 V
b1 y
b1110 w
b1110 m
b0 K
b1110 M
b0 O
b0 P
b0 R
b0 S
b0 T
b0 U
b0 V
1%!
0&!
1'!
b11 y
b1100 w
b1100 m
b0 K
b1100 M
b0 O
b0 P
b0 R
b0 S
b0 T
b0 U
b0 V
1!!
0"!
1#!
b111 y
b1000 w
b1000 m
b0 K
b1000 M
b0 O
b0 P
b0 R
b0 S
b0 T
b0 U
b0 V
1{
0|
1}
b1111 y
b0 w
b0 m
1x
1p
b0 K
b0 M
b0 O
b0 P
b0 R
b0 S
b0 T
b0 U
b0 V
0n
0N
b0 F
1Q
1H
02
14
#28000
b11100 7
b1 -
1A
1i
b1110 o
b0 K
b0 M
b0 O
b0 P
b0 R
b1 S
b0 T
b0 U
b0 V
b0 K
b0 M
b0 O
b0 P
b0 R
b1 S
b1 T
b0 U
b0 V
b1 Y
0u
1)!
0*!
b1 K
b0 M
b0 O
b0 P
b0 R
b1 S
b1 T
b0 U
b0 V
b1110 y
b1 w
b1 m
b1 K
b1 M
b0 O
b0 P
b0 R
b1 S
b1 T
b0 U
b0 V
0%!
1&!
0'!
b1100 y
b11 w
b11 m
b1 K
b11 M
b0 O
b0 P
b0 R
b1 S
b1 T
b0 U
b0 V
0!!
1"!
0#!
b1000 y
b111 w
b111 m
b1 K
b111 M
b0 O
b0 P
b0 R
b1 S
b1 T
b0 U
b0 V
0{
1|
0}
b0 y
b1111 w
b1111 m
0x
0p
b1 K
b1111 M
b0 O
b0 P
b0 R
b1 S
b1 T
b0 U
b0 V
1n
1N
b1 F
0Q
0H
12
04
