problema1/simulation/modelsim/tb_problema1.vcd
$date
	Sun Sep 07 03:56:51 2025
$end
$version
	ModelSim Version 2020.1
$end
$timescale
	1ps
$end

$scope module tb_problema1 $end
$var parameter 32 ! WIDTH $end
$var parameter 32 " MASK $end
$var parameter 4 # OP_ADD $end
$var parameter 4 $ OP_SUB $end
$var parameter 4 % OP_MUL $end
$var parameter 4 & OP_DIV $end
$var parameter 4 ' OP_AND $end
$var parameter 4 ( OP_OR $end
$var parameter 4 ) OP_XOR $end
$var parameter 4 * OP_MOD $end
$var parameter 4 + OP_SHL $end
$var parameter 4 , OP_SHR $end
$var reg 4 - A [3:0] $end
$var reg 4 . B [3:0] $end
$var reg 4 / opcode [3:0] $end
$var wire 1 0 result [3] $end
$var wire 1 1 result [2] $end
$var wire 1 2 result [1] $end
$var wire 1 3 result [0] $end
$var integer 32 4 total_tests $end
$var integer 32 5 total_errors $end

$scope function model_result $end
$upscope $end

$scope task check_case $end
$upscope $end

$scope module dut $end
$var parameter 32 6 WIDTH $end
$var parameter 1 7 SIGNED_OVF $end
$var parameter 32 8 MSB $end
$var wire 1 9 A [3] $end
$var wire 1 : A [2] $end
$var wire 1 ; A [1] $end
$var wire 1 < A [0] $end
$var wire 1 = B [3] $end
$var wire 1 > B [2] $end
$var wire 1 ? B [1] $end
$var wire 1 @ B [0] $end
$var wire 1 A opcode [3] $end
$var wire 1 B opcode [2] $end
$var wire 1 C opcode [1] $end
$var wire 1 D opcode [0] $end
$var reg 4 E result [3:0] $end
$var reg 1 F N $end
$var reg 1 G Z $end
$var reg 1 H C $end
$var reg 1 I V $end
$var reg 4 J addResult [3:0] $end
$var reg 1 K addCout $end
$var reg 4 L subResult [3:0] $end
$var reg 1 M subBorrow $end
$var reg 8 N prod_full [7:0] $end
$var reg 4 O Q_div [3:0] $end
$var reg 4 P Q_mod [3:0] $end
$var reg 1 Q div0 $end
$var reg 4 R Q_and [3:0] $end
$var reg 4 S Q_or [3:0] $end
$var reg 4 T Q_xor [3:0] $end
$var reg 4 U Q_shl [3:0] $end
$var reg 4 V Q_shr [3:0] $end
$var wire 1 W V_add_signed $end
$var wire 1 X V_sub_signed $end
$var wire 1 Y upper_all_zero $end
$var wire 1 Z upper_all_ones $end
$var wire 1 [ prod_sign $end
$var wire 1 \ V_mul_signed $end
$var wire 1 ] V_mul_unsigned $end

$scope module u_add $end
$var parameter 32 ^ N $end
$var wire 1 9 A [3] $end
$var wire 1 : A [2] $end
$var wire 1 ; A [1] $end
$var wire 1 < A [0] $end
$var wire 1 = B [3] $end
$var wire 1 > B [2] $end
$var wire 1 ? B [1] $end
$var wire 1 @ B [0] $end
$var wire 1 _ CIN $end
$var reg 4 ` suma [3:0] $end
$var reg 1 a cout $end
$var reg 4 b carry [3:0] $end

$scope begin sum_loop[3] $end
$var parameter 32 c i $end

$scope begin genblk1 $end

$scope module fa $end
$var wire 1 9 A $end
$var wire 1 = B $end
$var wire 1 d Carry $end
$var reg 1 e suma $end
$var reg 1 f Cout $end
$upscope $end
$upscope $end
$upscope $end

$scope begin sum_loop[2] $end
$var parameter 32 g i $end

$scope begin genblk1 $end

$scope module fa $end
$var wire 1 : A $end
$var wire 1 > B $end
$var wire 1 h Carry $end
$var reg 1 i suma $end
$var reg 1 j Cout $end
$upscope $end
$upscope $end
$upscope $end

$scope begin sum_loop[1] $end
$var parameter 32 k i $end

$scope begin genblk1 $end

$scope module fa $end
$var wire 1 ; A $end
$var wire 1 ? B $end
$var wire 1 l Carry $end
$var reg 1 m suma $end
$var reg 1 n Cout $end
$upscope $end
$upscope $end
$upscope $end

$scope begin sum_loop[0] $end
$var parameter 32 o i $end

$scope begin genblk1 $end

$scope module fa $end
$var wire 1 < A $end
$var wire 1 @ B $end
$var wire 1 _ Carry $end
$var reg 1 p suma $end
$var reg 1 q Cout $end
$upscope $end
$upscope $end
$upscope $end
$upscope $end

$scope module u_sub $end
$var parameter 32 r N $end
$var wire 1 9 A [3] $end
$var wire 1 : A [2] $end
$var wire 1 ; A [1] $end
$var wire 1 < A [0] $end
$var wire 1 = B [3] $end
$var wire 1 > B [2] $end
$var wire 1 ? B [1] $end
$var wire 1 @ B [0] $end
$var wire 1 s BORROW_IN $end
$var reg 4 t DIFF [3:0] $end
$var reg 1 u BORROW_OUT $end
$var reg 4 v B_comp [3:0] $end
$var reg 1 w carry_internal $end

$scope module U1 $end
$var parameter 32 x N $end
$var wire 1 9 A [3] $end
$var wire 1 : A [2] $end
$var wire 1 ; A [1] $end
$var wire 1 < A [0] $end
$var wire 1 y B [3] $end
$var wire 1 z B [2] $end
$var wire 1 { B [1] $end
$var wire 1 | B [0] $end
$var wire 1 } CIN $end
$var reg 4 ~ suma [3:0] $end
$var reg 1 !! cout $end
$var reg 4 "! carry [3:0] $end

$scope begin sum_loop[3] $end
$var parameter 32 #! i $end

$scope begin genblk1 $end

$scope module fa $end
$var wire 1 9 A $end
$var wire 1 y B $end
$var wire 1 $! Carry $end
$var reg 1 %! suma $end
$var reg 1 &! Cout $end
$upscope $end
$upscope $end
$upscope $end

$scope begin sum_loop[2] $end
$var parameter 32 '! i $end

$scope begin genblk1 $end

$scope module fa $end
$var wire 1 : A $end
$var wire 1 z B $end
$var wire 1 (! Carry $end
$var reg 1 )! suma $end
$var reg 1 *! Cout $end
$upscope $end
$upscope $end
$upscope $end

$scope begin sum_loop[1] $end
$var parameter 32 +! i $end

$scope begin genblk1 $end

$scope module fa $end
$var wire 1 ; A $end
$var wire 1 { B $end
$var wire 1 ,! Carry $end
$var reg 1 -! suma $end
$var reg 1 .! Cout $end
$upscope $end
$upscope $end
$upscope $end

$scope begin sum_loop[0] $end
$var parameter 32 /! i $end

$scope begin genblk1 $end

$scope module fa $end
$var wire 1 < A $end
$var wire 1 | B $end
$var wire 1 } Carry $end
$var reg 1 0! suma $end
$var reg 1 1! Cout $end
$upscope $end
$upscope $end
$upscope $end
$upscope $end
$upscope $end

$scope module u_mul $end
$var parameter 32 2! N $end
$var wire 1 9 a [3] $end
$var wire 1 : a [2] $end
$var wire 1 ; a [1] $end
$var wire 1 < a [0] $end
$var wire 1 = b [3] $end
$var wire 1 > b [2] $end
$var wire 1 ? b [1] $end
$var wire 1 @ b [0] $end
$var reg 8 3! product [7:0] $end

$scope begin gen_pp[3] $end
$var parameter 32 4! i $end
$var reg 1 5! cout_unused $end

$scope module add_i $end
$var parameter 32 6! N $end
$var wire 1 7! A [7] $end
$var wire 1 8! A [6] $end
$var wire 1 9! A [5] $end
$var wire 1 :! A [4] $end
$var wire 1 ;! A [3] $end
$var wire 1 <! A [2] $end
$var wire 1 =! A [1] $end
$var wire 1 >! A [0] $end
$var wire 1 ?! B [7] $end
$var wire 1 @! B [6] $end
$var wire 1 A! B [5] $end
$var wire 1 B! B [4] $end
$var wire 1 C! B [3] $end
$var wire 1 D! B [2] $end
$var wire 1 E! B [1] $end
$var wire 1 F! B [0] $end
$var wire 1 G! CIN $end
$var reg 8 H! suma [7:0] $end
$var reg 1 I! cout $end
$var reg 8 J! carry [7:0] $end

$scope begin sum_loop[7] $end
$var parameter 32 K! i $end

$scope begin genblk1 $end

$scope module fa $end
$var wire 1 7! A $end
$var wire 1 ?! B $end
$var wire 1 L! Carry $end
$var reg 1 M! suma $end
$var reg 1 N! Cout $end
$upscope $end
$upscope $end
$upscope $end

$scope begin sum_loop[6] $end
$var parameter 32 O! i $end

$scope begin genblk1 $end

$scope module fa $end
$var wire 1 8! A $end
$var wire 1 @! B $end
$var wire 1 P! Carry $end
$var reg 1 Q! suma $end
$var reg 1 R! Cout $end
$upscope $end
$upscope $end
$upscope $end

$scope begin sum_loop[5] $end
$var parameter 32 S! i $end

$scope begin genblk1 $end

$scope module fa $end
$var wire 1 9! A $end
$var wire 1 A! B $end
$var wire 1 T! Carry $end
$var reg 1 U! suma $end
$var reg 1 V! Cout $end
$upscope $end
$upscope $end
$upscope $end

$scope begin sum_loop[4] $end
$var parameter 32 W! i $end

$scope begin genblk1 $end

$scope module fa $end
$var wire 1 :! A $end
$var wire 1 B! B $end
$var wire 1 X! Carry $end
$var reg 1 Y! suma $end
$var reg 1 Z! Cout $end
$upscope $end
$upscope $end
$upscope $end

$scope begin sum_loop[3] $end
$var parameter 32 [! i $end

$scope begin genblk1 $end

$scope module fa $end
$var wire 1 ;! A $end
$var wire 1 C! B $end
$var wire 1 \! Carry $end
$var reg 1 ]! suma $end
$var reg 1 ^! Cout $end
$upscope $end
$upscope $end
$upscope $end

$scope begin sum_loop[2] $end
$var parameter 32 _! i $end

$scope begin genblk1 $end

$scope module fa $end
$var wire 1 <! A $end
$var wire 1 D! B $end
$var wire 1 `! Carry $end
$var reg 1 a! suma $end
$var reg 1 b! Cout $end
$upscope $end
$upscope $end
$upscope $end

$scope begin sum_loop[1] $end
$var parameter 32 c! i $end

$scope begin genblk1 $end

$scope module fa $end
$var wire 1 =! A $end
$var wire 1 E! B $end
$var wire 1 d! Carry $end
$var reg 1 e! suma $end
$var reg 1 f! Cout $end
$upscope $end
$upscope $end
$upscope $end

$scope begin sum_loop[0] $end
$var parameter 32 g! i $end

$scope begin genblk1 $end

$scope module fa $end
$var wire 1 >! A $end
$var wire 1 F! B $end
$var wire 1 G! Carry $end
$var reg 1 h! suma $end
$var reg 1 i! Cout $end
$upscope $end
$upscope $end
$upscope $end
$upscope $end
$upscope $end

$scope begin gen_pp[2] $end
$var parameter 32 j! i $end
$var reg 1 k! cout_unused $end

$scope module add_i $end
$var parameter 32 l! N $end
$var wire 1 m! A [7] $end
$var wire 1 n! A [6] $end
$var wire 1 o! A [5] $end
$var wire 1 p! A [4] $end
$var wire 1 q! A [3] $end
$var wire 1 r! A [2] $end
$var wire 1 s! A [1] $end
$var wire 1 t! A [0] $end
$var wire 1 u! B [7] $end
$var wire 1 v! B [6] $end
$var wire 1 w! B [5] $end
$var wire 1 x! B [4] $end
$var wire 1 y! B [3] $end
$var wire 1 z! B [2] $end
$var wire 1 {! B [1] $end
$var wire 1 |! B [0] $end
$var wire 1 }! CIN $end
$var reg 8 ~! suma [7:0] $end
$var reg 1 !" cout $end
$var reg 8 "" carry [7:0] $end

$scope begin sum_loop[7] $end
$var parameter 32 #" i $end

$scope begin genblk1 $end

$scope module fa $end
$var wire 1 m! A $end
$var wire 1 u! B $end
$var wire 1 $" Carry $end
$var reg 1 %" suma $end
$var reg 1 &" Cout $end
$upscope $end
$upscope $end
$upscope $end

$scope begin sum_loop[6] $end
$var parameter 32 '" i $end

$scope begin genblk1 $end

$scope module fa $end
$var wire 1 n! A $end
$var wire 1 v! B $end
$var wire 1 (" Carry $end
$var reg 1 )" suma $end
$var reg 1 *" Cout $end
$upscope $end
$upscope $end
$upscope $end

$scope begin sum_loop[5] $end
$var parameter 32 +" i $end

$scope begin genblk1 $end

$scope module fa $end
$var wire 1 o! A $end
$var wire 1 w! B $end
$var wire 1 ," Carry $end
$var reg 1 -" suma $end
$var reg 1 ." Cout $end
$upscope $end
$upscope $end
$upscope $end

$scope begin sum_loop[4] $end
$var parameter 32 /" i $end

$scope begin genblk1 $end

$scope module fa $end
$var wire 1 p! A $end
$var wire 1 x! B $end
$var wire 1 0" Carry $end
$var reg 1 1" suma $end
$var reg 1 2" Cout $end
$upscope $end
$upscope $end
$upscope $end

$scope begin sum_loop[3] $end
$var parameter 32 3" i $end

$scope begin genblk1 $end

$scope module fa $end
$var wire 1 q! A $end
$var wire 1 y! B $end
$var wire 1 4" Carry $end
$var reg 1 5" suma $end
$var reg 1 6" Cout $end
$upscope $end
$upscope $end
$upscope $end

$scope begin sum_loop[2] $end
$var parameter 32 7" i $end

$scope begin genblk1 $end

$scope module fa $end
$var wire 1 r! A $end
$var wire 1 z! B $end
$var wire 1 8" Carry $end
$var reg 1 9" suma $end
$var reg 1 :" Cout $end
$upscope $end
$upscope $end
$upscope $end

$scope begin sum_loop[1] $end
$var parameter 32 ;" i $end

$scope begin genblk1 $end

$scope module fa $end
$var wire 1 s! A $end
$var wire 1 {! B $end
$var wire 1 <" Carry $end
$var reg 1 =" suma $end
$var reg 1 >" Cout $end
$upscope $end
$upscope $end
$upscope $end

$scope begin sum_loop[0] $end
$var parameter 32 ?" i $end

$scope begin genblk1 $end

$scope module fa $end
$var wire 1 t! A $end
$var wire 1 |! B $end
$var wire 1 }! Carry $end
$var reg 1 @" suma $end
$var reg 1 A" Cout $end
$upscope $end
$upscope $end
$upscope $end
$upscope $end
$upscope $end

$scope begin gen_pp[1] $end
$var parameter 32 B" i $end
$var reg 1 C" cout_unused $end

$scope module add_i $end
$var parameter 32 D" N $end
$var wire 1 E" A [7] $end
$var wire 1 F" A [6] $end
$var wire 1 G" A [5] $end
$var wire 1 H" A [4] $end
$var wire 1 I" A [3] $end
$var wire 1 J" A [2] $end
$var wire 1 K" A [1] $end
$var wire 1 L" A [0] $end
$var wire 1 M" B [7] $end
$var wire 1 N" B [6] $end
$var wire 1 O" B [5] $end
$var wire 1 P" B [4] $end
$var wire 1 Q" B [3] $end
$var wire 1 R" B [2] $end
$var wire 1 S" B [1] $end
$var wire 1 T" B [0] $end
$var wire 1 U" CIN $end
$var reg 8 V" suma [7:0] $end
$var reg 1 W" cout $end
$var reg 8 X" carry [7:0] $end

$scope begin sum_loop[7] $end
$var parameter 32 Y" i $end

$scope begin genblk1 $end

$scope module fa $end
$var wire 1 E" A $end
$var wire 1 M" B $end
$var wire 1 Z" Carry $end
$var reg 1 [" suma $end
$var reg 1 \" Cout $end
$upscope $end
$upscope $end
$upscope $end

$scope begin sum_loop[6] $end
$var parameter 32 ]" i $end

$scope begin genblk1 $end

$scope module fa $end
$var wire 1 F" A $end
$var wire 1 N" B $end
$var wire 1 ^" Carry $end
$var reg 1 _" suma $end
$var reg 1 `" Cout $end
$upscope $end
$upscope $end
$upscope $end

$scope begin sum_loop[5] $end
$var parameter 32 a" i $end

$scope begin genblk1 $end

$scope module fa $end
$var wire 1 G" A $end
$var wire 1 O" B $end
$var wire 1 b" Carry $end
$var reg 1 c" suma $end
$var reg 1 d" Cout $end
$upscope $end
$upscope $end
$upscope $end

$scope begin sum_loop[4] $end
$var parameter 32 e" i $end

$scope begin genblk1 $end

$scope module fa $end
$var wire 1 H" A $end
$var wire 1 P" B $end
$var wire 1 f" Carry $end
$var reg 1 g" suma $end
$var reg 1 h" Cout $end
$upscope $end
$upscope $end
$upscope $end

$scope begin sum_loop[3] $end
$var parameter 32 i" i $end

$scope begin genblk1 $end

$scope module fa $end
$var wire 1 I" A $end
$var wire 1 Q" B $end
$var wire 1 j" Carry $end
$var reg 1 k" suma $end
$var reg 1 l" Cout $end
$upscope $end
$upscope $end
$upscope $end

$scope begin sum_loop[2] $end
$var parameter 32 m" i $end

$scope begin genblk1 $end

$scope module fa $end
$var wire 1 J" A $end
$var wire 1 R" B $end
$var wire 1 n" Carry $end
$var reg 1 o" suma $end
$var reg 1 p" Cout $end
$upscope $end
$upscope $end
$upscope $end

$scope begin sum_loop[1] $end
$var parameter 32 q" i $end

$scope begin genblk1 $end

$scope module fa $end
$var wire 1 K" A $end
$var wire 1 S" B $end
$var wire 1 r" Carry $end
$var reg 1 s" suma $end
$var reg 1 t" Cout $end
$upscope $end
$upscope $end
$upscope $end

$scope begin sum_loop[0] $end
$var parameter 32 u" i $end

$scope begin genblk1 $end

$scope module fa $end
$var wire 1 L" A $end
$var wire 1 T" B $end
$var wire 1 U" Carry $end
$var reg 1 v" suma $end
$var reg 1 w" Cout $end
$upscope $end
$upscope $end
$upscope $end
$upscope $end
$upscope $end

$scope begin gen_pp[0] $end
$var parameter 32 x" i $end
$var reg 1 y" cout_unused $end

$scope module add_i $end
$var parameter 32 z" N $end
$var wire 1 {" A [7] $end
$var wire 1 |" A [6] $end
$var wire 1 }" A [5] $end
$var wire 1 ~" A [4] $end
$var wire 1 !# A [3] $end
$var wire 1 "# A [2] $end
$var wire 1 ## A [1] $end
$var wire 1 $# A [0] $end
$var wire 1 %# B [7] $end
$var wire 1 &# B [6] $end
$var wire 1 '# B [5] $end
$var wire 1 (# B [4] $end
$var wire 1 )# B [3] $end
$var wire 1 *# B [2] $end
$var wire 1 +# B [1] $end
$var wire 1 ,# B [0] $end
$var wire 1 -# CIN $end
$var reg 8 .# suma [7:0] $end
$var reg 1 /# cout $end
$var reg 8 0# carry [7:0] $end

$scope begin sum_loop[7] $end
$var parameter 32 1# i $end

$scope begin genblk1 $end

$scope module fa $end
$var wire 1 {" A $end
$var wire 1 %# B $end
$var wire 1 2# Carry $end
$var reg 1 3# suma $end
$var reg 1 4# Cout $end
$upscope $end
$upscope $end
$upscope $end

$scope begin sum_loop[6] $end
$var parameter 32 5# i $end

$scope begin genblk1 $end

$scope module fa $end
$var wire 1 |" A $end
$var wire 1 &# B $end
$var wire 1 6# Carry $end
$var reg 1 7# suma $end
$var reg 1 8# Cout $end
$upscope $end
$upscope $end
$upscope $end

$scope begin sum_loop[5] $end
$var parameter 32 9# i $end

$scope begin genblk1 $end

$scope module fa $end
$var wire 1 }" A $end
$var wire 1 '# B $end
$var wire 1 :# Carry $end
$var reg 1 ;# suma $end
$var reg 1 <# Cout $end
$upscope $end
$upscope $end
$upscope $end

$scope begin sum_loop[4] $end
$var parameter 32 =# i $end

$scope begin genblk1 $end

$scope module fa $end
$var wire 1 ~" A $end
$var wire 1 (# B $end
$var wire 1 ># Carry $end
$var reg 1 ?# suma $end
$var reg 1 @# Cout $end
$upscope $end
$upscope $end
$upscope $end

$scope begin sum_loop[3] $end
$var parameter 32 A# i $end

$scope begin genblk1 $end

$scope module fa $end
$var wire 1 !# A $end
$var wire 1 )# B $end
$var wire 1 B# Carry $end
$var reg 1 C# suma $end
$var reg 1 D# Cout $end
$upscope $end
$upscope $end
$upscope $end

$scope begin sum_loop[2] $end
$var parameter 32 E# i $end

$scope begin genblk1 $end

$scope module fa $end
$var wire 1 "# A $end
$var wire 1 *# B $end
$var wire 1 F# Carry $end
$var reg 1 G# suma $end
$var reg 1 H# Cout $end
$upscope $end
$upscope $end
$upscope $end

$scope begin sum_loop[1] $end
$var parameter 32 I# i $end

$scope begin genblk1 $end

$scope module fa $end
$var wire 1 ## A $end
$var wire 1 +# B $end
$var wire 1 J# Carry $end
$var reg 1 K# suma $end
$var reg 1 L# Cout $end
$upscope $end
$upscope $end
$upscope $end

$scope begin sum_loop[0] $end
$var parameter 32 M# i $end

$scope begin genblk1 $end

$scope module fa $end
$var wire 1 $# A $end
$var wire 1 ,# B $end
$var wire 1 -# Carry $end
$var reg 1 N# suma $end
$var reg 1 O# Cout $end
$upscope $end
$upscope $end
$upscope $end
$upscope $end
$upscope $end
$upscope $end
$upscope $end
$upscope $end
$enddefinitions $end
#0
$dumpvars
b0 -
b0 .
b0 /
b0 E
0F
1G
0H
0I
b0 J
0K
b0 `
0a
b0 b
0p
0q
0m
0n
0i
0j
0e
0f
b0 L
0M
b0 t
0u
b1111 v
1w
b0 ~
1!!
b1111 "!
00!
11!
0-!
1.!
0)!
1*!
0%!
1&!
b0 N
b0 3!
0y"
b0 .#
0/#
b0 0#
0N#
0O#
0K#
0L#
0G#
0H#
0C#
0D#
0?#
0@#
0;#
0<#
07#
08#
03#
04#
0C"
b0 V"
0W"
b0 X"
0v"
0w"
0s"
0t"
0o"
0p"
0k"
0l"
0g"
0h"
0c"
0d"
0_"
0`"
0["
0\"
0k!
b0 ~!
0!"
b0 ""
0@"
0A"
0="
0>"
09"
0:"
05"
06"
01"
02"
0-"
0."
0)"
0*"
0%"
0&"
05!
b0 H!
0I!
b0 J!
0h!
0i!
0e!
0f!
0a!
0b!
0]!
0^!
0Y!
0Z!
0U!
0V!
0Q!
0R!
0M!
0N!
b0 O
b0 P
1Q
b0 R
b0 S
b0 T
b0 U
b0 V
b100 !
b1111 "
b0 #
b1 $
b10 %
b11 &
b100 '
b101 (
b110 )
b111 *
b1000 +
b1001 ,
b100 6
b1 7
b11 8
b100 ^
b100 r
b100 x
b100 2!
b0 o
b1 k
b10 g
b11 c
b0 /!
b1 +!
b10 '!
b11 #!
b0 x"
b1000 z"
b1 B"
b1000 D"
b10 j!
b1000 l!
b11 4!
b1000 6!
b0 M#
b1 I#
b10 E#
b11 A#
b100 =#
b101 9#
b110 5#
b111 1#
b0 u"
b1 q"
b10 m"
b11 i"
b100 e"
b101 a"
b110 ]"
b111 Y"
b0 ?"
b1 ;"
b10 7"
b11 3"
b100 /"
b101 +"
b110 '"
b111 #"
b0 g!
b1 c!
b10 _!
b11 [!
b100 W!
b101 S!
b110 O!
b111 K!
b0 4
b0 5
03
02
01
00
0W
0X
1Y
0Z
0[
0\
0]
0<
0;
0:
09
0@
0?
0>
0=
0D
0C
0B
0A
0s
0_
0l
0h
0d
1}
1|
1{
1z
1y
1,!
1(!
1$!
0-#
0U"
0}!
0G!
0$#
0##
0"#
0!#
0~"
0}"
0|"
0{"
0,#
0+#
0*#
0)#
0(#
0'#
0&#
0%#
0J#
0F#
0B#
0>#
0:#
06#
02#
0L"
0K"
0J"
0I"
0H"
0G"
0F"
0E"
0T"
0S"
0R"
0Q"
0P"
0O"
0N"
0M"
0r"
0n"
0j"
0f"
0b"
0^"
0Z"
0t!
0s!
0r!
0q!
0p!
0o!
0n!
0m!
0|!
0{!
0z!
0y!
0x!
0w!
0v!
0u!
0<"
08"
04"
00"
0,"
0("
0$"
0>!
0=!
0<!
0;!
0:!
09!
08!
07!
0F!
0E!
0D!
0C!
0B!
0A!
0@!
0?!
0d!
0`!
0\!
0X!
0T!
0P!
0L!
$end
#1000
b1 -
b1 .
1@
1<
10!
b0 J
b0 L
b0 O
b0 P
b0 R
b0 S
b0 T
b10 U
b0 V
1q
b1110 v
b0 J
b0 L
b0 O
b0 P
b1 R
b0 S
b0 T
b10 U
b0 V
b0 J
b0 L
b0 O
b0 P
b1 R
b1 S
b0 T
b10 U
b0 V
b1 b
b1 ~
0|
00!
b1 t
1,#
1N#
b0 J
b1 L
b0 O
b0 P
b1 R
b1 S
b0 T
b10 U
b0 V
b0 ~
1l
1m
b0 t
b1 .#
b0 J
b0 L
b0 O
b0 P
b1 R
b1 S
b0 T
b10 U
b0 V
b10 `
b10 J
b0 L
b0 O
b0 P
b1 R
b1 S
b0 T
b10 U
b0 V
1L"
1v"
b1 V"
1t!
1@"
b1 ~!
1>!
1h!
b1 H!
b1 3!
b10 J
b0 L
b0 O
b0 P
b1 R
b1 S
b0 T
b10 U
b0 V
b1 N
b10 E
b10 J
b0 L
b1 O
b0 P
b1 R
b1 S
b0 T
b10 U
b0 V
0Q
0G
12
#2000
b1 4
#3000
b10 4
b0 .
b1 /
1D
0@
1p
0q
b1111 v
b10 J
b0 L
b1 O
b0 P
b0 R
b1 S
b0 T
b10 U
b0 V
b10 J
b0 L
b1 O
b0 P
b0 R
b1 S
b1 T
b10 U
b0 V
b0 b
b11 `
1|
10!
b11 J
b0 L
b1 O
b0 P
b0 R
b1 S
b1 T
b10 U
b0 V
0,#
0N#
b1 ~
0l
0m
b1 t
b0 .#
b11 J
b1 L
b1 O
b0 P
b0 R
b1 S
b1 T
b10 U
b0 V
b1 `
b1 J
b1 L
b1 O
b0 P
b0 R
b1 S
b1 T
b10 U
b0 V
0L"
0v"
b0 V"
0t!
0@"
b0 ~!
0>!
0h!
b0 H!
b0 3!
b1 J
b1 L
b1 O
b0 P
b0 R
b1 S
b1 T
b10 U
b0 V
b0 N
b1 J
b1 L
b0 O
b0 P
b0 R
b1 S
b1 T
b10 U
b0 V
1Q
b1 E
1H
13
02
#4000
b11 4
b0 -
b1 .
1@
0<
00!
b1 J
b1 L
b0 O
b0 P
b0 R
b1 S
b1 T
b0 U
b0 V
b1110 v
b0 ~
0|
10!
01!
b0 t
b1 J
b0 L
b0 O
b0 P
b0 R
b1 S
b1 T
b0 U
b0 V
b1110 "!
b1 ~
b1 t
b1 J
b1 L
b0 O
b0 P
b0 R
b1 S
b1 T
b0 U
b0 V
0,!
1-!
0.!
b1100 "!
b11 ~
b11 t
b1 J
b11 L
b0 O
b0 P
b0 R
b1 S
b1 T
b0 U
b0 V
0(!
1)!
0*!
b1000 "!
b111 ~
b111 t
b1 J
b111 L
b0 O
b0 P
b0 R
b1 S
b1 T
b0 U
b0 V
0$!
1%!
0&!
b0 "!
b1111 ~
b1111 t
0!!
0w
b1 J
b1111 L
b0 O
b0 P
b0 R
b1 S
b1 T
b0 U
b0 V
1u
1M
b1111 E
0H
0Q
1F
12
11
10
#5000
b100 4
b1 -
b10 /
0D
1C
1<
0p
1q
00!
11!
b1 J
b1111 L
b0 O
b0 P
b1 R
b1 S
b1 T
b0 U
b0 V
b1 J
b1111 L
b0 O
b0 P
b1 R
b1 S
b0 T
b0 U
b0 V
b1 J
b1111 L
b0 O
b0 P
b1 R
b1 S
b0 T
b10 U
b0 V
b1 "!
b1110 ~
b1 b
b0 `
b0 J
b1111 L
b0 O
b0 P
b1 R
b1 S
b0 T
b10 U
b0 V
b1110 t
1,#
1N#
b0 J
b1110 L
b0 O
b0 P
b1 R
b1 S
b0 T
b10 U
b0 V
1l
1,!
0-!
1.!
1m
b1 .#
b10 `
b11 "!
b1100 ~
b1100 t
b10 J
b1110 L
b0 O
b0 P
b1 R
b1 S
b0 T
b10 U
b0 V
b10 J
b1100 L
b0 O
b0 P
b1 R
b1 S
b0 T
b10 U
b0 V
1(!
1L"
1v"
0)!
1*!
b111 "!
b1000 ~
b1 V"
b1000 t
b10 J
b1000 L
b0 O
b0 P
b1 R
b1 S
b0 T
b10 U
b0 V
1$!
0%!
1&!
1t!
1@"
b1111 "!
b0 ~
b0 t
1!!
b1 ~!
1w
b10 J
b0 L
b0 O
b0 P
b1 R
b1 S
b0 T
b10 U
b0 V
0u
0M
1>!
1h!
b1 H!
b1 3!
b10 J
b0 L
b0 O
b0 P
b1 R
b1 S
b0 T
b10 U
b0 V
b1 N
b10 J
b0 L
b1 O
b0 P
b1 R
b1 S
b0 T
b10 U
b0 V
b1 E
0F
02
01
00
#6000
b101 4
#7000
b110 4
b0 -
b0 .
0@
0<
10!
01!
b10 J
b0 L
b1 O
b0 P
b1 R
b1 S
b0 T
b0 U
b0 V
0q
b1111 v
b10 J
b0 L
b1 O
b0 P
b0 R
b1 S
b0 T
b0 U
b0 V
b10 J
b0 L
b1 O
b0 P
b0 R
b0 S
b0 T
b0 U
b0 V
b0 b
b1110 "!
b1 ~
1|
00!
11!
b1 t
0,#
0N#
b10 J
b1 L
b1 O
b0 P
b0 R
b0 S
b0 T
b0 U
b0 V
b1111 "!
b0 ~
0,!
0l
0m
1-!
0.!
b0 t
b0 .#
b10 J
b0 L
b1 O
b0 P
b0 R
b0 S
b0 T
b0 U
b0 V
b1101 "!
b10 ~
b0 `
1,!
0-!
1.!
b0 J
b0 L
b1 O
b0 P
b0 R
b0 S
b0 T
b0 U
b0 V
b10 t
b0 J
b10 L
b1 O
b0 P
b0 R
b0 S
b0 T
b0 U
b0 V
b1111 "!
b0 ~
0(!
0L"
0v"
1)!
0*!
b0 t
b0 J
b0 L
b1 O
b0 P
b0 R
b0 S
b0 T
b0 U
b0 V
b1011 "!
b100 ~
b0 V"
1(!
0)!
1*!
b100 t
b0 J
b100 L
b1 O
b0 P
b0 R
b0 S
b0 T
b0 U
b0 V
b1111 "!
b0 ~
0$!
1%!
0&!
b0 t
0t!
0@"
b0 J
b0 L
b1 O
b0 P
b0 R
b0 S
b0 T
b0 U
b0 V
b111 "!
b1000 ~
1$!
0%!
1&!
b1000 t
0!!
b0 ~!
0w
b0 J
b1000 L
b1 O
b0 P
b0 R
b0 S
b0 T
b0 U
b0 V
b1111 "!
b0 ~
b0 t
1!!
1u
1M
1w
b0 J
b0 L
b1 O
b0 P
b0 R
b0 S
b0 T
b0 U
b0 V
0>!
0h!
0u
0M
b0 H!
b0 3!
b0 J
b0 L
b1 O
b0 P
b0 R
b0 S
b0 T
b0 U
b0 V
b0 N
b0 E
b0 J
b0 L
b0 O
b0 P
b0 R
b0 S
b0 T
b0 U
b0 V
1Q
1G
03
#8000
b111 4
b1 -
b1 .
1@
1<
10!
b0 J
b0 L
b0 O
b0 P
b0 R
b0 S
b0 T
b10 U
b0 V
1q
b1110 v
b0 J
b0 L
b0 O
b0 P
b1 R
b0 S
b0 T
b10 U
b0 V
b0 J
b0 L
b0 O
b0 P
b1 R
b1 S
b0 T
b10 U
b0 V
b1 b
b1 ~
0|
00!
b1 t
1,#
1N#
b0 J
b1 L
b0 O
b0 P
b1 R
b1 S
b0 T
b10 U
b0 V
b0 ~
1l
1m
b0 t
b1 .#
b0 J
b0 L
b0 O
b0 P
b1 R
b1 S
b0 T
b10 U
b0 V
b10 `
b10 J
b0 L
b0 O
b0 P
b1 R
b1 S
b0 T
b10 U
b0 V
1L"
1v"
b1 V"
1t!
1@"
b1 ~!
1>!
1h!
b1 H!
b1 3!
b10 J
b0 L
b0 O
b0 P
b1 R
b1 S
b0 T
b10 U
b0 V
b1 N
b1 E
b10 J
b0 L
b1 O
b0 P
b1 R
b1 S
b0 T
b10 U
b0 V
0Q
0G
13
#9000
b1000 4
b11 /
1D
