Lab2/simulation/modelsim/tb_problema1.vcd
$date
	Wed Sep 03 10:52:53 2025
$end
$version
	ModelSim Version 2020.1
$end
$timescale
	1ps
$end

$scope module tb_problema1 $end
$var parameter 32 ! WIDTH $end
$var parameter 32 " MASK $end
$var parameter 4 # OP_ADD $end
$var parameter 4 $ OP_SUB $end
$var parameter 4 % OP_DIV $end
$var parameter 4 & OP_AND $end
$var parameter 4 ' OP_OR $end
$var parameter 4 ( OP_XOR $end
$var parameter 4 ) OP_MOD $end
$var parameter 4 * OP_SHL $end
$var parameter 4 + OP_SHR $end
$var reg 4 , A [3:0] $end
$var reg 4 - B [3:0] $end
$var reg 4 . opcode [3:0] $end
$var wire 1 / result [3] $end
$var wire 1 0 result [2] $end
$var wire 1 1 result [1] $end
$var wire 1 2 result [0] $end
$var integer 32 3 total_tests $end
$var integer 32 4 total_errors $end

$scope function model_result $end
$upscope $end

$scope task check_case $end
$upscope $end

$scope module dut $end
$var parameter 32 5 WIDTH $end
$var wire 1 6 A [3] $end
$var wire 1 7 A [2] $end
$var wire 1 8 A [1] $end
$var wire 1 9 A [0] $end
$var wire 1 : B [3] $end
$var wire 1 ; B [2] $end
$var wire 1 < B [1] $end
$var wire 1 = B [0] $end
$var wire 1 > opcode [3] $end
$var wire 1 ? opcode [2] $end
$var wire 1 @ opcode [1] $end
$var wire 1 A opcode [0] $end
$var reg 4 B result [3:0] $end
$var reg 1 C N $end
$var reg 1 D Z $end
$var reg 1 E C $end
$var reg 1 F V $end
$var reg 4 G addResult [3:0] $end
$var reg 1 H addCout $end
$var reg 4 I subResult [3:0] $end
$var reg 1 J subBorrow $end
$var reg 4 K Q_div [3:0] $end
$var reg 4 L Q_mod [3:0] $end
$var reg 1 M div0 $end
$var reg 4 N Q_and [3:0] $end
$var reg 4 O Q_or [3:0] $end
$var reg 4 P Q_xor [3:0] $end
$var reg 4 Q Q_shl [3:0] $end
$var reg 4 R Q_shr [3:0] $end

$scope module u_add $end
$var parameter 32 S N $end
$var wire 1 6 A [3] $end
$var wire 1 7 A [2] $end
$var wire 1 8 A [1] $end
$var wire 1 9 A [0] $end
$var wire 1 : B [3] $end
$var wire 1 ; B [2] $end
$var wire 1 < B [1] $end
$var wire 1 = B [0] $end
$var wire 1 T CIN $end
$var reg 4 U suma [3:0] $end
$var reg 1 V cout $end
$var reg 4 W carry [3:0] $end

$scope begin sum_loop[3] $end
$var parameter 32 X i $end

$scope begin genblk1 $end

$scope module fa $end
$var wire 1 6 A $end
$var wire 1 : B $end
$var wire 1 Y Carry $end
$var reg 1 Z suma $end
$var reg 1 [ Cout $end
$upscope $end
$upscope $end
$upscope $end

$scope begin sum_loop[2] $end
$var parameter 32 \ i $end

$scope begin genblk1 $end

$scope module fa $end
$var wire 1 7 A $end
$var wire 1 ; B $end
$var wire 1 ] Carry $end
$var reg 1 ^ suma $end
$var reg 1 _ Cout $end
$upscope $end
$upscope $end
$upscope $end

$scope begin sum_loop[1] $end
$var parameter 32 ` i $end

$scope begin genblk1 $end

$scope module fa $end
$var wire 1 8 A $end
$var wire 1 < B $end
$var wire 1 a Carry $end
$var reg 1 b suma $end
$var reg 1 c Cout $end
$upscope $end
$upscope $end
$upscope $end

$scope begin sum_loop[0] $end
$var parameter 32 d i $end

$scope begin genblk1 $end

$scope module fa $end
$var wire 1 9 A $end
$var wire 1 = B $end
$var wire 1 T Carry $end
$var reg 1 e suma $end
$var reg 1 f Cout $end
$upscope $end
$upscope $end
$upscope $end
$upscope $end

$scope module u_sub $end
$var parameter 32 g N $end
$var wire 1 6 A [3] $end
$var wire 1 7 A [2] $end
$var wire 1 8 A [1] $end
$var wire 1 9 A [0] $end
$var wire 1 : B [3] $end
$var wire 1 ; B [2] $end
$var wire 1 < B [1] $end
$var wire 1 = B [0] $end
$var wire 1 h BORROW_IN $end
$var reg 4 i DIFF [3:0] $end
$var reg 1 j BORROW_OUT $end
$var reg 4 k B_comp [3:0] $end
$var reg 1 l carry_internal $end

$scope module U1 $end
$var parameter 32 m N $end
$var wire 1 6 A [3] $end
$var wire 1 7 A [2] $end
$var wire 1 8 A [1] $end
$var wire 1 9 A [0] $end
$var wire 1 n B [3] $end
$var wire 1 o B [2] $end
$var wire 1 p B [1] $end
$var wire 1 q B [0] $end
$var wire 1 r CIN $end
$var reg 4 s suma [3:0] $end
$var reg 1 t cout $end
$var reg 4 u carry [3:0] $end

$scope begin sum_loop[3] $end
$var parameter 32 v i $end

$scope begin genblk1 $end

$scope module fa $end
$var wire 1 6 A $end
$var wire 1 n B $end
$var wire 1 w Carry $end
$var reg 1 x suma $end
$var reg 1 y Cout $end
$upscope $end
$upscope $end
$upscope $end

$scope begin sum_loop[2] $end
$var parameter 32 z i $end

$scope begin genblk1 $end

$scope module fa $end
$var wire 1 7 A $end
$var wire 1 o B $end
$var wire 1 { Carry $end
$var reg 1 | suma $end
$var reg 1 } Cout $end
$upscope $end
$upscope $end
$upscope $end

$scope begin sum_loop[1] $end
$var parameter 32 ~ i $end

$scope begin genblk1 $end

$scope module fa $end
$var wire 1 8 A $end
$var wire 1 p B $end
$var wire 1 !! Carry $end
$var reg 1 "! suma $end
$var reg 1 #! Cout $end
$upscope $end
$upscope $end
$upscope $end

$scope begin sum_loop[0] $end
$var parameter 32 $! i $end

$scope begin genblk1 $end

$scope module fa $end
$var wire 1 9 A $end
$var wire 1 q B $end
$var wire 1 r Carry $end
$var reg 1 %! suma $end
$var reg 1 &! Cout $end
$upscope $end
$upscope $end
$upscope $end
$upscope $end
$upscope $end
$upscope $end
$upscope $end
$enddefinitions $end
#0
$dumpvars
b0 ,
b0 -
b0 .
b0 B
0C
1D
0E
0F
b0 G
0H
b0 U
0V
b0 W
0e
0f
0b
0c
0^
0_
0Z
0[
b0 I
0J
b0 i
0j
b1111 k
1l
b0 s
1t
b1111 u
0%!
1&!
0"!
1#!
0|
1}
0x
1y
b0 K
b0 L
1M
b0 N
b0 O
b0 P
b0 Q
b0 R
b100 !
b1111 "
b0 #
b1 $
b10 %
b11 &
b100 '
b101 (
b110 )
b111 *
b1000 +
b100 5
b100 S
b100 g
b100 m
b0 d
b1 `
b10 \
b11 X
b0 $!
b1 ~
b10 z
b11 v
b0 3
b0 4
02
01
00
0/
09
08
07
06
0=
0<
0;
0:
0A
0@
0?
0>
0h
0T
0a
0]
0Y
1r
1q
1p
1o
1n
1!!
1{
1w
$end
#1000
b1 ,
b1 -
1=
19
1%!
b0 G
b0 I
b0 K
b0 L
b0 N
b0 O
b0 P
b10 Q
b0 R
1f
b1110 k
b0 G
b0 I
b0 K
b0 L
b1 N
b0 O
b0 P
b10 Q
b0 R
b0 G
b0 I
b0 K
b0 L
b1 N
b1 O
b0 P
b10 Q
b0 R
b1 W
b1 s
0q
0%!
b1 i
b0 G
b1 I
b0 K
b0 L
b1 N
b1 O
b0 P
b10 Q
b0 R
b0 s
1a
1b
b0 i
b0 G
b0 I
b0 K
b0 L
b1 N
b1 O
b0 P
b10 Q
b0 R
b10 U
b10 G
b0 I
b0 K
b0 L
b1 N
b1 O
b0 P
b10 Q
b0 R
b10 B
b10 G
b0 I
b1 K
b0 L
b1 N
b1 O
b0 P
b10 Q
b0 R
0M
0D
11
#2000
b1 3
#3000
b10 3
b0 -
b1 .
1A
0=
1e
0f
b1111 k
b10 G
b0 I
b1 K
b0 L
b0 N
b1 O
b0 P
b10 Q
b0 R
b10 G
b0 I
b1 K
b0 L
b0 N
b1 O
b1 P
b10 Q
b0 R
b0 W
b11 U
1q
1%!
b11 G
b0 I
b1 K
b0 L
b0 N
b1 O
b1 P
b10 Q
b0 R
b1 s
0a
0b
b1 i
b11 G
b1 I
b1 K
b0 L
b0 N
b1 O
b1 P
b10 Q
b0 R
b1 U
b1 G
b1 I
b1 K
b0 L
b0 N
b1 O
b1 P
b10 Q
b0 R
b1 G
b1 I
b0 K
b0 L
b0 N
b1 O
b1 P
b10 Q
b0 R
1M
b1 B
1E
12
01
#4000
b11 3
b0 ,
b1 -
1=
09
0%!
b1 G
b1 I
b0 K
b0 L
b0 N
b1 O
b1 P
b0 Q
b0 R
b1110 k
b0 s
0q
1%!
0&!
b0 i
b1 G
b0 I
b0 K
b0 L
b0 N
b1 O
b1 P
b0 Q
b0 R
b1110 u
b1 s
b1 i
b1 G
b1 I
b0 K
b0 L
b0 N
b1 O
b1 P
b0 Q
b0 R
0!!
1"!
0#!
b1100 u
b11 s
b11 i
b1 G
b11 I
b0 K
b0 L
b0 N
b1 O
b1 P
b0 Q
b0 R
0{
1|
0}
b1000 u
b111 s
b111 i
b1 G
b111 I
b0 K
b0 L
b0 N
b1 O
b1 P
b0 Q
b0 R
0w
1x
0y
b0 u
b1111 s
b1111 i
0t
0l
b1 G
b1111 I
b0 K
b0 L
b0 N
b1 O
b1 P
b0 Q
b0 R
1j
1J
b1111 B
0E
0M
1C
11
10
1/
#5000
b100 3
b1 ,
b10 .
0A
1@
19
0e
1f
0%!
1&!
b1 G
b1111 I
b0 K
b0 L
b1 N
b1 O
b1 P
b0 Q
b0 R
b1 G
b1111 I
b0 K
b0 L
b1 N
b1 O
b0 P
b0 Q
b0 R
b1 G
b1111 I
b0 K
b0 L
b1 N
b1 O
b0 P
b10 Q
b0 R
b1 u
b1110 s
b1 W
b0 U
b0 G
b1111 I
b0 K
b0 L
b1 N
b1 O
b0 P
b10 Q
b0 R
b1110 i
b0 G
b1110 I
b0 K
b0 L
b1 N
b1 O
b0 P
b10 Q
b0 R
1a
1!!
0"!
1#!
1b
b10 U
b11 u
b1100 s
b1100 i
b10 G
b1110 I
b0 K
b0 L
b1 N
b1 O
b0 P
b10 Q
b0 R
b10 G
b1100 I
b0 K
b0 L
b1 N
b1 O
b0 P
b10 Q
b0 R
1{
0|
1}
b111 u
b1000 s
b1000 i
b10 G
b1000 I
b0 K
b0 L
b1 N
b1 O
b0 P
b10 Q
b0 R
1w
0x
1y
b1111 u
b0 s
b0 i
1t
1l
b10 G
b0 I
b0 K
b0 L
b1 N
b1 O
b0 P
b10 Q
b0 R
0j
0J
b10 G
b0 I
b1 K
b0 L
b1 N
b1 O
b0 P
b10 Q
b0 R
b1 B
0C
01
00
0/
#6000
b101 3
b0 -
0=
1e
0f
b1111 k
b10 G
b0 I
b1 K
b0 L
b0 N
b1 O
b0 P
b10 Q
b0 R
b10 G
b0 I
b1 K
b0 L
b0 N
b1 O
b1 P
b10 Q
b0 R
b0 W
b11 U
1q
1%!
b11 G
b0 I
b1 K
b0 L
b0 N
b1 O
b1 P
b10 Q
b0 R
b1 s
0a
0b
b1 i
b11 G
b1 I
b1 K
b0 L
b0 N
b1 O
b1 P
b10 Q
b0 R
b1 U
b1 G
b1 I
b1 K
b0 L
b0 N
b1 O
b1 P
b10 Q
b0 R
b1 G
b1 I
b0 K
b0 L
b0 N
b1 O
b1 P
b10 Q
b0 R
1M
1F
b0 B
1D
02
#7000
b110 3
#8000
b111 3
b110 .
1?
0F
#9000
b1000 3
#10000
b1001 3
b0 ,
09
0e
0%!
b1 G
b1 I
b0 K
b0 L
b0 N
b0 O
b1 P
b10 Q
b0 R
b1 G
b1 I
b0 K
b0 L
b0 N
b0 O
b0 P
b10 Q
b0 R
b1 G
b1 I
b0 K
b0 L
b0 N
b0 O
b0 P
b0 Q
b0 R
b0 s
b0 U
b0 G
b1 I
b0 K
b0 L
b0 N
b0 O
b0 P
b0 Q
b0 R
b0 i
b0 G
b0 I
b0 K
b0 L
b0 N
b0 O
b0 P
b0 Q
b0 R
#11000
b1010 3
b1 -
b11 .
1A
0?
1=
1e
b1110 k
b0 G
b0 I
b0 K
b0 L
b0 N
b1 O
b0 P
b0 Q
b0 R
b0 G
b0 I
b0 K
b0 L
b0 N
b1 O
b1 P
b0 Q
b0 R
b1 U
0q
1%!
0&!
b1 G
b0 I
b0 K
b0 L
b0 N
b1 O
b1 P
b0 Q
b0 R
b1110 u
b1 s
b1 i
b1 G
b1 I
b0 K
b0 L
b0 N
b1 O
b1 P
b0 Q
b0 R
0!!
1"!
0#!
b1100 u
b11 s
b11 i
b1 G
b11 I
b0 K
b0 L
b0 N
b1 O
b1 P
b0 Q
b0 R
0{
1|
0}
b1000 u
b111 s
b111 i
b1 G
b111 I
b0 K
b0 L
b0 N
b1 O
b1 P
b0 Q
b0 R
0w
1x
0y
b0 u
b1111 s
b1111 i
0t
0l
b1 G
b1111 I
b0 K
b0 L
b0 N
b1 O
b1 P
b0 Q
b0 R
1j
1J
0M
#12000
b1011 3
b100 .
0A
0@
1?
b1 B
0D
12
#13000
b1100 3
b101 .
1A
#14000
b1101 3
b1 ,
b0 -
b111 .
1@
0=
19
0%!
1&!
b1 G
b1111 I
b0 K
b0 L
b0 N
b1 O
b1 P
b10 Q
b0 R
b1111 k
b1 u
b1110 s
1q
1%!
b1110 i
b1 G
b1110 I
b0 K
b0 L
b0 N
b1 O
b1 P
b10 Q
b0 R
b1111 s
1!!
0"!
1#!
b1111 i
b1 G
b1111 I
b0 K
b0 L
b0 N
b1 O
b1 P
b10 Q
b0 R
b11 u
b1101 s
b1101 i
b1 G
b1101 I
b0 K
b0 L
b0 N
b1 O
b1 P
b10 Q
b0 R
1{
0|
1}
b111 u
b1001 s
b1001 i
b1 G
b1001 I
b0 K
b0 L
b0 N
b1 O
b1 P
b10 Q
b0 R
1w
0x
1y
b1111 u
b1 s
b1 i
1t
1l
b1 G
b1 I
b0 K
b0 L
b0 N
b1 O
b1 P
b10 Q
b0 R
0j
0J
1M
b10 B
02
11
#15000
b1110 3
b1000 .
0A
0@
0?
1>
b0 B
1E
1D
01
#16000
b1111 3
b0 ,
b0 .
0>
09
0e
0%!
b1 G
b1 I
b0 K
b0 L
b0 N
b0 O
b1 P
b10 Q
b0 R
b1 G
b1 I
b0 K
b0 L
b0 N
b0 O
b0 P
b10 Q
b0 R
b1 G
b1 I
b0 K
b0 L
b0 N
b0 O
b0 P
b0 Q
b0 R
b0 s
b0 U
b0 G
b1 I
b0 K
b0 L
b0 N
b0 O
b0 P
b0 Q
b0 R
b0 i
b0 G
b0 I
b0 K
b0 L
b0 N
b0 O
b0 P
b0 Q
b0 R
0E
#17000
b10000 3
b1 -
1=
1e
b1110 k
b0 G
b0 I
b0 K
b0 L
b0 N
b1 O
b0 P
b0 Q
b0 R
b0 G
b0 I
b0 K
b0 L
b0 N
b1 O
b1 P
b0 Q
b0 R
b1 U
0q
1%!
0&!
b1 G
b0 I
b0 K
b0 L
b0 N
b1 O
b1 P
b0 Q
b0 R
b1110 u
b1 s
b1 i
b1 G
b1 I
b0 K
b0 L
b0 N
b1 O
b1 P
b0 Q
b0 R
0!!
1"!
0#!
b1100 u
b11 s
b11 i
b1 G
b11 I
b0 K
b0 L
b0 N
b1 O
b1 P
b0 Q
b0 R
0{
1|
0}
b1000 u
b111 s
b111 i
b1 G
b111 I
b0 K
b0 L
b0 N
b1 O
b1 P
b0 Q
b0 R
0w
1x
0y
b0 u
b1111 s
b1111 i
0t
0l
b1 G
b1111 I
b0 K
b0 L
b0 N
b1 O
b1 P
b0 Q
b0 R
1j
1J
b1 B
0M
0D
12
#18000
b10001 3
b0 -
0=
0e
b1111 k
b1 G
b1111 I
b0 K
b0 L
b0 N
b0 O
b1 P
b0 Q
b0 R
b1 G
b1111 I
b0 K
b0 L
b0 N
b0 O
b0 P
b0 Q
b0 R
b0 U
1q
0%!
1&!
b0 G
b1111 I
b0 K
b0 L
b0 N
b0 O
b0 P
b0 Q
b0 R
b1 u
b1110 s
b1110 i
b0 G
b1110 I
b0 K
b0 L
b0 N
b0 O
b0 P
b0 Q
b0 R
1!!
0"!
1#!
b11 u
b1100 s
b1100 i
b0 G
b1100 I
b0 K
b0 L
b0 N
b0 O
b0 P
b0 Q
b0 R
1{
0|
1}
b111 u
b1000 s
b1000 i
b0 G
b1000 I
b0 K
b0 L
b0 N
b0 O
b0 P
b0 Q
b0 R
1w
0x
1y
b1111 u
b0 s
b0 i
1t
1l
b0 G
b0 I
b0 K
b0 L
b0 N
b0 O
b0 P
b0 Q
b0 R
0j
0J
b0 B
1M
1D
02
#19000
b10010 3
b1 -
1=
1e
b1110 k
b0 G
b0 I
b0 K
b0 L
b0 N
b1 O
b0 P
b0 Q
b0 R
b0 G
b0 I
b0 K
b0 L
b0 N
b1 O
b1 P
b0 Q
b0 R
b1 U
0q
1%!
0&!
b1 G
b0 I
b0 K
b0 L
b0 N
b1 O
b1 P
b0 Q
b0 R
b1110 u
b1 s
b1 i
b1 G
b1 I
b0 K
b0 L
b0 N
b1 O
b1 P
b0 Q
b0 R
0!!
1"!
0#!
b1100 u
b11 s
b11 i
b1 G
b11 I
b0 K
b0 L
b0 N
b1 O
b1 P
b0 Q
b0 R
0{
1|
0}
b1000 u
b111 s
b111 i
b1 G
b111 I
b0 K
b0 L
b0 N
b1 O
b1 P
b0 Q
b0 R
0w
1x
0y
b0 u
b1111 s
b1111 i
0t
0l
b1 G
b1111 I
b0 K
b0 L
b0 N
b1 O
b1 P
b0 Q
b0 R
1j
1J
b1 B
0M
0D
12
#20000
b10011 3
b0 -
0=
0e
b1111 k
b1 G
b1111 I
b0 K
b0 L
b0 N
b0 O
b1 P
b0 Q
b0 R
b1 G
b1111 I
b0 K
b0 L
b0 N
b0 O
b0 P
b0 Q
b0 R
b0 U
1q
0%!
1&!
b0 G
b1111 I
b0 K
b0 L
b0 N
b0 O
b0 P
b0 Q
b0 R
b1 u
b1110 s
b1110 i
b0 G
b1110 I
b0 K
b0 L
b0 N
b0 O
b0 P
b0 Q
b0 R
1!!
0"!
1#!
b11 u
b1100 s
b1100 i
b0 G
b1100 I
b0 K
b0 L
b0 N
b0 O
b0 P
b0 Q
b0 R
1{
0|
1}
b111 u
b1000 s
b1000 i
b0 G
b1000 I
b0 K
b0 L
b0 N
b0 O
b0 P
b0 Q
b0 R
1w
0x
1y
b1111 u
b0 s
b0 i
1t
1l
b0 G
b0 I
b0 K
b0 L
b0 N
b0 O
b0 P
b0 Q
b0 R
0j
0J
b0 B
1M
1D
02
#21000
b10100 3
b1 -
1=
1e
b1110 k
b0 G
b0 I
b0 K
b0 L
b0 N
b1 O
b0 P
b0 Q
b0 R
b0 G
b0 I
b0 K
b0 L
b0 N
b1 O
b1 P
b0 Q
b0 R
b1 U
0q
1%!
0&!
b1 G
b0 I
b0 K
b0 L
b0 N
b1 O
b1 P
b0 Q
b0 R
b1110 u
b1 s
b1 i
b1 G
b1 I
b0 K
b0 L
b0 N
b1 O
b1 P
b0 Q
b0 R
0!!
1"!
0#!
b1100 u
b11 s
b11 i
b1 G
b11 I
b0 K
b0 L
b0 N
b1 O
b1 P
b0 Q
b0 R
0{
1|
0}
b1000 u
b111 s
b111 i
b1 G
b111 I
b0 K
b0 L
b0 N
b1 O
b1 P
b0 Q
b0 R
0w
1x
0y
b0 u
b1111 s
b1111 i
0t
0l
b1 G
b1111 I
b0 K
b0 L
b0 N
b1 O
b1 P
b0 Q
b0 R
1j
1J
b1 B
0M
0D
12
#22000
b10101 3
b0 -
0=
0e
b1111 k
b1 G
b1111 I
b0 K
b0 L
b0 N
b0 O
b1 P
b0 Q
b0 R
b1 G
b1111 I
b0 K
b0 L
b0 N
b0 O
b0 P
b0 Q
b0 R
b0 U
1q
0%!
1&!
b0 G
b1111 I
b0 K
b0 L
b0 N
b0 O
b0 P
b0 Q
b0 R
b1 u
b1110 s
b1110 i
b0 G
b1110 I
b0 K
b0 L
b0 N
b0 O
b0 P
b0 Q
b0 R
1!!
0"!
1#!
b11 u
b1100 s
b1100 i
b0 G
b1100 I
b0 K
b0 L
b0 N
b0 O
b0 P
b0 Q
b0 R
1{
0|
1}
b111 u
b1000 s
b1000 i
b0 G
b1000 I
b0 K
b0 L
b0 N
b0 O
b0 P
b0 Q
b0 R
1w
0x
1y
b1111 u
b0 s
b0 i
1t
1l
b0 G
b0 I
b0 K
b0 L
b0 N
b0 O
b0 P
b0 Q
b0 R
0j
0J
b0 B
1M
1D
02
#23000
b10110 3
b1 -
1=
1e
b1110 k
b0 G
b0 I
b0 K
b0 L
b0 N
b1 O
b0 P
b0 Q
b0 R
b0 G
b0 I
b0 K
b0 L
b0 N
b1 O
b1 P
b0 Q
b0 R
b1 U
0q
1%!
0&!
b1 G
b0 I
b0 K
b0 L
b0 N
b1 O
b1 P
b0 Q
b0 R
b1110 u
b1 s
b1 i
b1 G
b1 I
b0 K
b0 L
b0 N
b1 O
b1 P
b0 Q
b0 R
0!!
1"!
0#!
b1100 u
b11 s
b11 i
b1 G
b11 I
b0 K
b0 L
b0 N
b1 O
b1 P
b0 Q
b0 R
0{
1|
0}
b1000 u
b111 s
b111 i
b1 G
b111 I
b0 K
b0 L
b0 N
b1 O
b1 P
b0 Q
b0 R
0w
1x
0y
b0 u
b1111 s
b1111 i
0t
0l
b1 G
b1111 I
b0 K
b0 L
b0 N
b1 O
b1 P
b0 Q
b0 R
1j
1J
b1 B
0M
0D
12
#24000
b10111 3
b0 -
0=
0e
b1111 k
b1 G
b1111 I
b0 K
b0 L
b0 N
b0 O
b1 P
b0 Q
b0 R
b1 G
b1111 I
b0 K
b0 L
b0 N
b0 O
b0 P
b0 Q
b0 R
b0 U
1q
0%!
1&!
b0 G
b1111 I
b0 K
b0 L
b0 N
b0 O
b0 P
b0 Q
b0 R
b1 u
b1110 s
b1110 i
b0 G
b1110 I
b0 K
b0 L
b0 N
b0 O
b0 P
b0 Q
b0 R
1!!
0"!
1#!
b11 u
b1100 s
b1100 i
b0 G
b1100 I
b0 K
b0 L
b0 N
b0 O
b0 P
b0 Q
b0 R
1{
0|
1}
b111 u
b1000 s
b1000 i
b0 G
b1000 I
b0 K
b0 L
b0 N
b0 O
b0 P
b0 Q
b0 R
1w
0x
1y
b1111 u
b0 s
b0 i
1t
1l
b0 G
b0 I
b0 K
b0 L
b0 N
b0 O
b0 P
b0 Q
b0 R
0j
0J
b0 B
1M
1D
02
#25000
b11000 3
b1 -
1=
1e
b1110 k
b0 G
b0 I
b0 K
b0 L
b0 N
b1 O
b0 P
b0 Q
b0 R
b0 G
b0 I
b0 K
b0 L
b0 N
b1 O
b1 P
b0 Q
b0 R
b1 U
0q
1%!
0&!
b1 G
b0 I
b0 K
b0 L
b0 N
b1 O
b1 P
b0 Q
b0 R
b1110 u
b1 s
b1 i
b1 G
b1 I
b0 K
b0 L
b0 N
b1 O
b1 P
b0 Q
b0 R
0!!
1"!
0#!
b1100 u
b11 s
b11 i
b1 G
b11 I
b0 K
b0 L
b0 N
b1 O
b1 P
b0 Q
b0 R
0{
1|
0}
b1000 u
b111 s
b111 i
b1 G
b111 I
b0 K
b0 L
b0 N
b1 O
b1 P
b0 Q
b0 R
0w
1x
0y
b0 u
b1111 s
b1111 i
0t
0l
b1 G
b1111 I
b0 K
b0 L
b0 N
b1 O
b1 P
b0 Q
b0 R
1j
1J
b1 B
0M
0D
12
#26000
b11001 3
b0 -
0=
0e
b1111 k
b1 G
b1111 I
b0 K
b0 L
b0 N
b0 O
b1 P
b0 Q
b0 R
b1 G
b1111 I
b0 K
b0 L
b0 N
b0 O
b0 P
b0 Q
b0 R
b0 U
1q
0%!
1&!
b0 G
b1111 I
b0 K
b0 L
b0 N
b0 O
b0 P
b0 Q
b0 R
b1 u
b1110 s
b1110 i
b0 G
b1110 I
b0 K
b0 L
b0 N
b0 O
b0 P
b0 Q
b0 R
1!!
0"!
1#!
b11 u
b1100 s
b1100 i
b0 G
b1100 I
b0 K
b0 L
b0 N
b0 O
b0 P
b0 Q
b0 R
1{
0|
1}
b111 u
b1000 s
b1000 i
b0 G
b1000 I
b0 K
b0 L
b0 N
b0 O
b0 P
b0 Q
b0 R
1w
0x
1y
b1111 u
b0 s
b0 i
1t
1l
b0 G
b0 I
b0 K
b0 L
b0 N
b0 O
b0 P
b0 Q
b0 R
0j
0J
b0 B
1M
1D
02
#27000
b11010 3
b1 -
1=
1e
b1110 k
b0 G
b0 I
b0 K
b0 L
b0 N
b1 O
b0 P
b0 Q
b0 R
b0 G
b0 I
b0 K
b0 L
b0 N
b1 O
b1 P
b0 Q
b0 R
b1 U
0q
1%!
0&!
b1 G
b0 I
b0 K
b0 L
b0 N
b1 O
b1 P
b0 Q
b0 R
b1110 u
b1 s
b1 i
b1 G
b1 I
b0 K
b0 L
b0 N
b1 O
b1 P
b0 Q
b0 R
0!!
1"!
0#!
b1100 u
b11 s
b11 i
b1 G
b11 I
b0 K
b0 L
b0 N
b1 O
b1 P
b0 Q
b0 R
0{
1|
0}
b1000 u
b111 s
b111 i
b1 G
b111 I
b0 K
b0 L
b0 N
b1 O
b1 P
b0 Q
b0 R
0w
1x
0y
b0 u
b1111 s
b1111 i
0t
0l
b1 G
b1111 I
b0 K
b0 L
b0 N
b1 O
b1 P
b0 Q
b0 R
1j
1J
b1 B
0M
0D
12
#28000
b11011 3
b0 -
0=
0e
b1111 k
b1 G
b1111 I
b0 K
b0 L
b0 N
b0 O
b1 P
b0 Q
b0 R
b1 G
b1111 I
b0 K
b0 L
b0 N
b0 O
b0 P
b0 Q
b0 R
b0 U
1q
0%!
1&!
b0 G
b1111 I
b0 K
b0 L
b0 N
b0 O
b0 P
b0 Q
b0 R
b1 u
b1110 s
b1110 i
b0 G
b1110 I
b0 K
b0 L
b0 N
b0 O
b0 P
b0 Q
b0 R
1!!
0"!
1#!
b11 u
b1100 s
b1100 i
b0 G
b1100 I
b0 K
b0 L
b0 N
b0 O
b0 P
b0 Q
b0 R
1{
0|
1}
b111 u
b1000 s
b1000 i
b0 G
b1000 I
b0 K
b0 L
b0 N
b0 O
b0 P
b0 Q
b0 R
1w
0x
1y
b1111 u
b0 s
b0 i
1t
1l
b0 G
b0 I
b0 K
b0 L
b0 N
b0 O
b0 P
b0 Q
b0 R
0j
0J
b0 B
1M
1D
02
#29000
b11100 3
b1 -
1=
1e
b1110 k
b0 G
b0 I
b0 K
b0 L
b0 N
b1 O
b0 P
b0 Q
b0 R
b0 G
b0 I
b0 K
b0 L
b0 N
b1 O
b1 P
b0 Q
b0 R
b1 U
0q
1%!
0&!
b1 G
b0 I
b0 K
b0 L
b0 N
b1 O
b1 P
b0 Q
b0 R
b1110 u
b1 s
b1 i
b1 G
b1 I
b0 K
b0 L
b0 N
b1 O
b1 P
b0 Q
b0 R
0!!
1"!
0#!
b1100 u
b11 s
b11 i
b1 G
b11 I
b0 K
b0 L
b0 N
b1 O
b1 P
b0 Q
b0 R
0{
1|
0}
b1000 u
b111 s
b111 i
b1 G
b111 I
b0 K
b0 L
b0 N
b1 O
b1 P
b0 Q
b0 R
0w
1x
0y
b0 u
b1111 s
b1111 i
0t
0l
b1 G
b1111 I
b0 K
b0 L
b0 N
b1 O
b1 P
b0 Q
b0 R
1j
1J
b1 B
0M
0D
12
#30000
b11101 3
b0 -
0=
0e
b1111 k
b1 G
b1111 I
b0 K
b0 L
b0 N
b0 O
b1 P
b0 Q
b0 R
b1 G
b1111 I
b0 K
b0 L
b0 N
b0 O
b0 P
b0 Q
b0 R
b0 U
1q
0%!
1&!
b0 G
b1111 I
b0 K
b0 L
b0 N
b0 O
b0 P
b0 Q
b0 R
b1 u
b1110 s
b1110 i
b0 G
b1110 I
b0 K
b0 L
b0 N
b0 O
b0 P
b0 Q
b0 R
1!!
0"!
1#!
b11 u
b1100 s
b1100 i
b0 G
b1100 I
b0 K
b0 L
b0 N
b0 O
b0 P
b0 Q
b0 R
1{
0|
1}
b111 u
b1000 s
b1000 i
b0 G
b1000 I
b0 K
b0 L
b0 N
b0 O
b0 P
b0 Q
b0 R
1w
0x
1y
b1111 u
b0 s
b0 i
1t
1l
b0 G
b0 I
b0 K
b0 L
b0 N
b0 O
b0 P
b0 Q
b0 R
0j
0J
b0 B
1M
1D
02
#31000
b11110 3
b1 -
1=
1e
b1110 k
b0 G
b0 I
b0 K
b0 L
b0 N
b1 O
b0 P
b0 Q
b0 R
b0 G
b0 I
b0 K
b0 L
b0 N
b1 O
b1 P
b0 Q
b0 R
b1 U
0q
1%!
0&!
b1 G
b0 I
b0 K
b0 L
b0 N
b1 O
b1 P
b0 Q
b0 R
b1110 u
b1 s
b1 i
b1 G
b1 I
b0 K
b0 L
b0 N
b1 O
b1 P
b0 Q
b0 R
0!!
1"!
0#!
b1100 u
b11 s
b11 i
b1 G
b11 I
b0 K
b0 L
b0 N
b1 O
b1 P
b0 Q
b0 R
0{
1|
0}
b1000 u
b111 s
b111 i
b1 G
b111 I
b0 K
b0 L
b0 N
b1 O
b1 P
b0 Q
b0 R
0w
1x
0y
b0 u
b1111 s
b1111 i
0t
0l
b1 G
b1111 I
b0 K
b0 L
b0 N
b1 O
b1 P
b0 Q
b0 R
1j
1J
b1 B
0M
0D
12
#32000
b11111 3
b1 ,
b0 -
0=
19
0%!
1&!
b1 G
b1111 I
b0 K
b0 L
b0 N
b1 O
b1 P
b10 Q
b0 R
b1111 k
b1 u
b1110 s
1q
1%!
b1110 i
b1 G
b1110 I
b0 K
b0 L
b0 N
b1 O
b1 P
b10 Q
b0 R
b1111 s
1!!
0"!
1#!
b1111 i
b1 G
b1111 I
b0 K
b0 L
b0 N
b1 O
b1 P
b10 Q
b0 R
b11 u
b1101 s
b1101 i
b1 G
b1101 I
b0 K
b0 L
b0 N
b1 O
b1 P
b10 Q
b0 R
1{
0|
1}
b111 u
b1001 s
b1001 i
b1 G
b1001 I
b0 K
b0 L
b0 N
b1 O
b1 P
b10 Q
b0 R
1w
0x
1y
b1111 u
b1 s
b1 i
1t
1l
b1 G
b1 I
b0 K
b0 L
b0 N
b1 O
b1 P
b10 Q
b0 R
0j
0J
1M
